[onlntest_0_0]
REGRESSION: Revert "floppy: reintroduce O_NDELAY fix", 8a0c014cd205 (v5.12-rc1-dontuse), https://git.kernel.org/pub/scm/linux/kernel/git/torvalds/linux.git/commit/?h=master&id=8a0c014cd20516ade9654fc13b51345ec58e7be8, mainline, master, previous: culprit indentified
INITIAL_REPORT: 1628408566, Revert "floppy: reintroduce O_NDELAY fix", Denis Efremov, efremov@linux.com, https://lore.kernel.org/lkml/20210808074246.33449-1-efremov@linux.com/
LINK: [BUG] FLOPPY DRIVER since 5.10.20, https://lore.kernel.org/lkml/de10cb47-34d1-5a88-7751-225ca380f735@compro.net/ [monitored]
LINK: [RFC PATCH 0/5] selftests: floppy: basic tests, https://lore.kernel.org/lkml/20210818154646.925351-1-efremov@linux.com/ [monitored]
LINK: [GIT PULL] Floppy patch for 5.15, https://lore.kernel.org/lkml/388418f4-2b9a-6fed-836c-a004369dc7c0@linux.com/ [monitored]
SOLVED: fixed, 1630375306, v5.15-rc1, https://git.kernel.org/pub/scm/linux/kernel/git/torvalds/linux.git/commit/?h=master&id=c7e9d0020361f4308a70cdfd6d5335e273eb8717, Revert "floppy: reintroduce O_NDELAY fix"
ACTIVITY: [BUG] FLOPPY DRIVER since 5.10.20, Mark Hounschell, https://lore.kernel.org/lkml/de10cb47-34d1-5a88-7751-225ca380f735@compro.net/, 1627066070, PatchKind.0
ACTIVITY: Re: [BUG] FLOPPY DRIVER since 5.10.20, Denis Efremov, https://lore.kernel.org/lkml/e49603c2-ac36-12b0-57cf-ff5ab30115bc@linux.com/, 1627286265, PatchKind.0
ACTIVITY: Re: [BUG] FLOPPY DRIVER since 5.10.20, Mark Hounschell, https://lore.kernel.org/lkml/2f4037b6-7ab3-9592-aaf0-dfcda19d61bc@cfl.rr.com/, 1627298131, PatchKind.0
ACTIVITY: Re: [BUG] FLOPPY DRIVER since 5.10.20, Mark Hounschell, https://lore.kernel.org/lkml/f5501a7c-4387-259d-66d2-f10db0cf36ff@cfl.rr.com/, 1627298254, PatchKind.0
ACTIVITY: Re: [BUG] FLOPPY DRIVER since 5.10.20, Denis Efremov, https://lore.kernel.org/lkml/f1277dcb-6bf8-b149-ad4e-68a4109d4e67@linux.com/, 1627299429, PatchKind.0
ACTIVITY: Re: [BUG] FLOPPY DRIVER since 5.10.20, Mark Hounschell, https://lore.kernel.org/lkml/1cf8e751-db77-441e-53b4-d6e979bbe046@compro.net/, 1627302228, PatchKind.0
ACTIVITY: Re: [BUG] FLOPPY DRIVER since 5.10.20, Denis Efremov, https://lore.kernel.org/lkml/751150dd-251f-bc68-0cd0-4a10b70ab79a@linux.com/, 1627317256, PatchKind.0
ACTIVITY: Re: [BUG] FLOPPY DRIVER since 5.10.20, Denis Efremov, https://lore.kernel.org/lkml/ffb8ca1c-ac8c-95c4-c05a-1269c4831b0a@linux.com/, 1627622101, PatchKind.0
ACTIVITY: Re: [BUG] FLOPPY DRIVER since 5.10.20, Kurt Garloff, https://lore.kernel.org/lkml/9d46f063-8d8d-95ee-e262-9300f54d527c@garloff.de/, 1627816483, PatchKind.0
ACTIVITY: Revert "floppy: reintroduce O_NDELAY fix", Denis Efremov, https://lore.kernel.org/lkml/20210808074246.33449-1-efremov@linux.com/, 1628408566, PatchKind.0
ACTIVITY: [PATCH] Revert "floppy: reintroduce O_NDELAY fix", Denis Efremov, https://lore.kernel.org/lkml/20210808074246.33449-1-efremov@linux.com/, 1628408566, PatchKind.SIGNEDOFF|SUBJECT|DIFF
ACTIVITY: Re: [PATCH] Revert "floppy: reintroduce O_NDELAY fix", Jiri Kosina, https://lore.kernel.org/lkml/nycvar.YFH.7.76.2108160914070.8253@cbobk.fhfr.pm/, 1629098250, PatchKind.0
ACTIVITY: Re: [PATCH] Revert "floppy: reintroduce O_NDELAY fix", Jiri Kosina, https://lore.kernel.org/lkml/nycvar.YFH.7.76.2108160914070.8253@cbobk.fhfr.pm/, 1629098250, PatchKind.0
ACTIVITY: [RFC PATCH 0/5] selftests: floppy: basic tests, Denis Efremov, https://lore.kernel.org/lkml/20210818154646.925351-1-efremov@linux.com/, 1629301601, PatchKind.0
ACTIVITY: [RFC PATCH 1/5] checkpatch: improve handling of revert commits, Denis Efremov, https://lore.kernel.org/lkml/20210818154646.925351-2-efremov@linux.com/, 1629301602, PatchKind.SIGNEDOFF|DIFF
ACTIVITY: [RFC PATCH 2/5] gen_initramfs.sh: use absolute path for gen_init_cpio, Denis Efremov, https://lore.kernel.org/lkml/20210818154646.925351-3-efremov@linux.com/, 1629301603, PatchKind.SIGNEDOFF|DIFF
ACTIVITY: [RFC PATCH 3/5] selftests: floppy: add basic tests for opening an empty device, Denis Efremov, https://lore.kernel.org/lkml/20210818154646.925351-4-efremov@linux.com/, 1629301604, PatchKind.SIGNEDOFF|DIFF
ACTIVITY: [RFC PATCH 4/5] selftests: floppy: add basic tests for a readonly disk, Denis Efremov, https://lore.kernel.org/lkml/20210818154646.925351-5-efremov@linux.com/, 1629301605, PatchKind.SIGNEDOFF|DIFF
ACTIVITY: [RFC PATCH 5/5] selftests: floppy: add basic rdwr tests, Denis Efremov, https://lore.kernel.org/lkml/20210818154646.925351-6-efremov@linux.com/, 1629301606, PatchKind.SIGNEDOFF|DIFF
ACTIVITY: Re: [PATCH] Revert "floppy: reintroduce O_NDELAY fix", Denis Efremov, https://lore.kernel.org/lkml/5ca95b90-c6e0-99b3-b129-75dc05cfb1d4@linux.com/, 1629302038, PatchKind.0
ACTIVITY: Re: [PATCH] Revert "floppy: reintroduce O_NDELAY fix", Denis Efremov, https://lore.kernel.org/lkml/5ca95b90-c6e0-99b3-b129-75dc05cfb1d4@linux.com/, 1629302038, PatchKind.0
ACTIVITY: Re: [RFC PATCH 1/5] checkpatch: improve handling of revert commits, Joe Perches, https://lore.kernel.org/lkml/cc5801790fea258e20fa6b7e26de7806ae8e0dda.camel@perches.com/, 1629302434, PatchKind.0
ACTIVITY: Re: [RFC PATCH 1/5] checkpatch: improve handling of revert commits, Denis Efremov, https://lore.kernel.org/lkml/3d347d4b-1576-754f-8633-ba6084cc0661@linux.com/, 1629303679, PatchKind.0
ACTIVITY: Re: [RFC PATCH 1/5] checkpatch: improve handling of revert commits, Joe Perches, https://lore.kernel.org/lkml/71535d629266751273c15cc05dd7c987cb9c43b6.camel@perches.com/, 1629318076, PatchKind.0
ACTIVITY: Re: [RFC PATCH 1/5] checkpatch: improve handling of revert commits, Andrew Morton, https://lore.kernel.org/lkml/20210818133551.3287f097f4c70742ab6b762f@linux-foundation.org/, 1629318951, PatchKind.0
ACTIVITY: Re: [RFC PATCH 1/5] checkpatch: improve handling of revert commits, Joe Perches, https://lore.kernel.org/lkml/23c8ebaa0921d5597df9fc1d6cbbcc4f354f80c5.camel@perches.com/, 1629321743, PatchKind.DIFF
ACTIVITY: Re: [RFC PATCH 2/5] gen_initramfs.sh: use absolute path for gen_init_cpio, Masahiro Yamada, https://lore.kernel.org/lkml/CAK7LNASTa%2B_d17wF6NW6GHC7Y%2B_RrXYZuo0MzzbsNnaRn8KJuQ@mail.gmail.com/, 1629332663, PatchKind.0
ACTIVITY: Re: [RFC PATCH 1/5] checkpatch: improve handling of revert commits, Denis Efremov, https://lore.kernel.org/lkml/c31b2007-26a9-34e0-8c9a-8e11a00ce69f@linux.com/, 1629402749, PatchKind.0
ACTIVITY: Re: [RFC PATCH 2/5] gen_initramfs.sh: use absolute path for gen_init_cpio, Denis Efremov, https://lore.kernel.org/lkml/e90603ee-61e0-4530-34dc-087e40c94aa1@linux.com/, 1629406303, PatchKind.0
ACTIVITY: Re: [RFC PATCH 1/5] checkpatch: improve handling of revert commits, Joe Perches, https://lore.kernel.org/lkml/8db9a7d938b2b1a1bdbd0224246e047c83581334.camel@perches.com/, 1629409457, PatchKind.DIFF
ACTIVITY: Re: [RFC PATCH 1/5] checkpatch: improve handling of revert commits, Joe Perches, https://lore.kernel.org/lkml/ac2587d3d4b7ce87e8922380e36d7864bfb54262.camel@perches.com/, 1629411435, PatchKind.0
ACTIVITY: Re: [RFC PATCH 2/5] gen_initramfs.sh: use absolute path for gen_init_cpio, Masahiro Yamada, https://lore.kernel.org/lkml/CAK7LNARKDO1-g7At8q%2BivCHm2aDNGupHWoqAt3NRwNTShggeFQ@mail.gmail.com/, 1629425997, PatchKind.0
ACTIVITY: Re: [RFC PATCH 1/5] checkpatch: improve handling of revert commits, Denis Efremov, https://lore.kernel.org/lkml/7eda27d1-9e9f-dfd6-3a54-6c592a797ea5@linux.com/, 1629528431, PatchKind.0
ACTIVITY: Re: [RFC PATCH 1/5] checkpatch: improve handling of revert commits, Joe Perches, https://lore.kernel.org/lkml/4bf2c7360206025731928fa1c8ad95faa9e65ab8.camel@perches.com/, 1629529958, PatchKind.0
ACTIVITY: Re: [RFC PATCH 1/5] checkpatch: improve handling of revert commits, Denis Efremov, https://lore.kernel.org/lkml/17ee07ea-d768-0099-cad7-43b5b5c75560@linux.com/, 1629531311, PatchKind.0
ACTIVITY: [GIT PULL] Floppy patch for 5.15, Denis Efremov, https://lore.kernel.org/lkml/388418f4-2b9a-6fed-836c-a004369dc7c0@linux.com/, 1630231710, PatchKind.0
ACTIVITY: Re: [GIT PULL] Floppy patch for 5.15, Jens Axboe, https://lore.kernel.org/lkml/0d3e8324-18ee-32c4-f666-21971bd8f334@kernel.dk/, 1630241547, PatchKind.0
ACTIVITY: Re: [PATCH] Revert "floppy: reintroduce O_NDELAY fix", Thorsten Leemhuis, https://lore.kernel.org/lkml/a11ba91f-a520-e6ab-5566-dfc9fd934440@leemhuis.info/, 1630315204, PatchKind.0
ACTIVITY: Re: [PATCH] Revert "floppy: reintroduce O_NDELAY fix", Thorsten Leemhuis, https://lore.kernel.org/lkml/a11ba91f-a520-e6ab-5566-dfc9fd934440@leemhuis.info/, 1630315204, PatchKind.0
ACTIVITY: Commit c7e9d0020361 in next, Denis Efremov, https://git.kernel.org/pub/scm/linux/kernel/git/next/linux-next.git/commit/?h=master&id=c7e9d0020361f4308a70cdfd6d5335e273eb8717, 1630375306, PatchKind.0
ACTIVITY: Commit c7e9d0020361 in mainline, Denis Efremov, https://git.kernel.org/pub/scm/linux/kernel/git/torvalds/linux.git/commit/?h=master&id=c7e9d0020361f4308a70cdfd6d5335e273eb8717, 1630375306, PatchKind.0
ACTIVITY: Commit c7e9d0020361 in stable/linux-5.15.y, Denis Efremov, https://git.kernel.org/pub/scm/linux/kernel/git/stable/linux.git/commit/?h=linux-5.15.y&id=c7e9d0020361f4308a70cdfd6d5335e273eb8717, 1630375306, PatchKind.0
ACTIVITY: Commit c7e9d0020361 in stable/linux-5.16.y, Denis Efremov, https://git.kernel.org/pub/scm/linux/kernel/git/stable/linux.git/commit/?h=linux-5.16.y&id=c7e9d0020361f4308a70cdfd6d5335e273eb8717, 1630375306, PatchKind.0
ACTIVITY: Commit c7e9d0020361 in stable/linux-5.17.y, Denis Efremov, https://git.kernel.org/pub/scm/linux/kernel/git/stable/linux.git/commit/?h=linux-5.17.y&id=c7e9d0020361f4308a70cdfd6d5335e273eb8717, 1630375306, PatchKind.0
ACTIVITY: Commit c7e9d0020361 in stable/linux-5.18.y, Denis Efremov, https://git.kernel.org/pub/scm/linux/kernel/git/stable/linux.git/commit/?h=linux-5.18.y&id=c7e9d0020361f4308a70cdfd6d5335e273eb8717, 1630375306, PatchKind.0
ACTIVITY: Commit d25b48d4d3ef in stable/linux-4.4.y, Denis Efremov, https://git.kernel.org/pub/scm/linux/kernel/git/stable/linux.git/commit/?h=linux-4.4.y&id=d25b48d4d3ef1ce75ce5628a8a3ba60a2427090f, 1630654988, PatchKind.0
ACTIVITY: Commit 05f67ba7e677 in stable/linux-4.9.y, Denis Efremov, https://git.kernel.org/pub/scm/linux/kernel/git/stable/linux.git/commit/?h=linux-4.9.y&id=05f67ba7e6773d561866daf5346b19b7bcb991b9, 1630655081, PatchKind.0
ACTIVITY: Commit 4ac05376dbb8 in stable/linux-4.14.y, Denis Efremov, https://git.kernel.org/pub/scm/linux/kernel/git/stable/linux.git/commit/?h=linux-4.14.y&id=4ac05376dbb8539d882ffa2069be680859920ce7, 1630655786, PatchKind.0
ACTIVITY: Commit 61b224e29ec3 in stable/linux-4.19.y, Denis Efremov, https://git.kernel.org/pub/scm/linux/kernel/git/stable/linux.git/commit/?h=linux-4.19.y&id=61b224e29ec37cbf39111270f2c7143bfe222b20, 1630655883, PatchKind.0
ACTIVITY: Commit 67871ada3a53 in stable/linux-5.4.y, Denis Efremov, https://git.kernel.org/pub/scm/linux/kernel/git/stable/linux.git/commit/?h=linux-5.4.y&id=67871ada3a53895df959305b0bba84a91081a90e, 1630656496, PatchKind.0
ACTIVITY: Commit 17982c664f8b in stable/linux-5.10.y, Denis Efremov, https://git.kernel.org/pub/scm/linux/kernel/git/stable/linux.git/commit/?h=linux-5.10.y&id=17982c664f8b2c9543241552331b008ad34d2648, 1630656571, PatchKind.0
ACTIVITY: Commit ba17363729d2 in stable/linux-5.13.y, Denis Efremov, https://git.kernel.org/pub/scm/linux/kernel/git/stable/linux.git/commit/?h=linux-5.13.y&id=ba17363729d21aefa58431d1dca717d96c7b5bab, 1630657386, PatchKind.0
ACTIVITY: Commit ebf67b94ca7a in stable/linux-5.14.y, Denis Efremov, https://git.kernel.org/pub/scm/linux/kernel/git/stable/linux.git/commit/?h=linux-5.14.y&id=ebf67b94ca7a6a17f73812433b8ccd6e76754d26, 1630657442, PatchKind.0
ACTIVITY: Re: [PATCH] Revert "floppy: reintroduce O_NDELAY fix", Thorsten Leemhuis, https://lore.kernel.org/regressions/8d83985a-68a6-13f9-42b6-a6980c9f853c@leemhuis.info/, 1632137352, PatchKind.0
ACTIVITY: Re: [PATCH] Revert "floppy: reintroduce O_NDELAY fix", Thorsten Leemhuis, https://lore.kernel.org/regressions/8d83985a-68a6-13f9-42b6-a6980c9f853c@leemhuis.info/, 1632137352, PatchKind.0
HISTORY: Re:Revert "floppy: reintroduce O_NDELAY fix", 1630315204, Thorsten Leemhuis, https://lore.kernel.org/lkml/a11ba91f-a520-e6ab-5566-dfc9fd934440@leemhuis.info/, introduced: 8a0c014cd20516ade9654fc13b51345ec58e7be8 ^
HISTORY: Re: [PATCH] Revert "floppy: reintroduce O_NDELAY fix", 1630315204, Thorsten Leemhuis, https://lore.kernel.org/lkml/a11ba91f-a520-e6ab-5566-dfc9fd934440@leemhuis.info/, monitor: https://lore.kernel.org/lkml/20210818154646.925351-1-efremov@linux.com/
HISTORY: Re: [PATCH] Revert "floppy: reintroduce O_NDELAY fix", 1630315204, Thorsten Leemhuis, https://lore.kernel.org/lkml/a11ba91f-a520-e6ab-5566-dfc9fd934440@leemhuis.info/, monitor: https://lore.kernel.org/lkml/388418f4-2b9a-6fed-836c-a004369dc7c0@linux.com/
HISTORY: Revert "floppy: reintroduce O_NDELAY fix", 1630375306, Denis Efremov, https://git.kernel.org/pub/scm/linux/kernel/git/next/linux-next.git/commit/?h=master&id=c7e9d0020361f4308a70cdfd6d5335e273eb8717, fix: c7e9d0020361 in next referred to this regression
HISTORY: Revert "floppy: reintroduce O_NDELAY fix", 1630375306, Denis Efremov, https://git.kernel.org/pub/scm/linux/kernel/git/torvalds/linux.git/commit/?h=master&id=c7e9d0020361f4308a70cdfd6d5335e273eb8717, fixed: c7e9d0020361 in mainline referred to this regression
HISTORY: Revert "floppy: reintroduce O_NDELAY fix", 1630375306, Denis Efremov, https://git.kernel.org/pub/scm/linux/kernel/git/stable/linux.git/commit/?h=linux-5.15.y&id=c7e9d0020361f4308a70cdfd6d5335e273eb8717, note: c7e9d0020361 in stable/linux-5.15.y referred to this regression
HISTORY: Revert "floppy: reintroduce O_NDELAY fix", 1630375306, Denis Efremov, https://git.kernel.org/pub/scm/linux/kernel/git/stable/linux.git/commit/?h=linux-5.16.y&id=c7e9d0020361f4308a70cdfd6d5335e273eb8717, note: c7e9d0020361 in stable/linux-5.16.y referred to this regression
HISTORY: Revert "floppy: reintroduce O_NDELAY fix", 1630375306, Denis Efremov, https://git.kernel.org/pub/scm/linux/kernel/git/stable/linux.git/commit/?h=linux-5.17.y&id=c7e9d0020361f4308a70cdfd6d5335e273eb8717, note: c7e9d0020361 in stable/linux-5.17.y referred to this regression
HISTORY: Revert "floppy: reintroduce O_NDELAY fix", 1630375306, Denis Efremov, https://git.kernel.org/pub/scm/linux/kernel/git/stable/linux.git/commit/?h=linux-5.18.y&id=c7e9d0020361f4308a70cdfd6d5335e273eb8717, note: c7e9d0020361 in stable/linux-5.18.y referred to this regression
HISTORY: Revert "floppy: reintroduce O_NDELAY fix", 1630654988, Denis Efremov, https://git.kernel.org/pub/scm/linux/kernel/git/stable/linux.git/commit/?h=linux-4.4.y&id=d25b48d4d3ef1ce75ce5628a8a3ba60a2427090f, note: d25b48d4d3ef in stable/linux-4.4.y referred to this regression
HISTORY: Revert "floppy: reintroduce O_NDELAY fix", 1630655081, Denis Efremov, https://git.kernel.org/pub/scm/linux/kernel/git/stable/linux.git/commit/?h=linux-4.9.y&id=05f67ba7e6773d561866daf5346b19b7bcb991b9, note: 05f67ba7e677 in stable/linux-4.9.y referred to this regression
HISTORY: Revert "floppy: reintroduce O_NDELAY fix", 1630655786, Denis Efremov, https://git.kernel.org/pub/scm/linux/kernel/git/stable/linux.git/commit/?h=linux-4.14.y&id=4ac05376dbb8539d882ffa2069be680859920ce7, note: 4ac05376dbb8 in stable/linux-4.14.y referred to this regression
HISTORY: Revert "floppy: reintroduce O_NDELAY fix", 1630655883, Denis Efremov, https://git.kernel.org/pub/scm/linux/kernel/git/stable/linux.git/commit/?h=linux-4.19.y&id=61b224e29ec37cbf39111270f2c7143bfe222b20, note: 61b224e29ec3 in stable/linux-4.19.y referred to this regression
HISTORY: Revert "floppy: reintroduce O_NDELAY fix", 1630656496, Denis Efremov, https://git.kernel.org/pub/scm/linux/kernel/git/stable/linux.git/commit/?h=linux-5.4.y&id=67871ada3a53895df959305b0bba84a91081a90e, note: 67871ada3a53 in stable/linux-5.4.y referred to this regression
HISTORY: Revert "floppy: reintroduce O_NDELAY fix", 1630656571, Denis Efremov, https://git.kernel.org/pub/scm/linux/kernel/git/stable/linux.git/commit/?h=linux-5.10.y&id=17982c664f8b2c9543241552331b008ad34d2648, note: 17982c664f8b in stable/linux-5.10.y referred to this regression
HISTORY: Revert "floppy: reintroduce O_NDELAY fix", 1630657386, Denis Efremov, https://git.kernel.org/pub/scm/linux/kernel/git/stable/linux.git/commit/?h=linux-5.13.y&id=ba17363729d21aefa58431d1dca717d96c7b5bab, note: ba17363729d2 in stable/linux-5.13.y referred to this regression
HISTORY: Revert "floppy: reintroduce O_NDELAY fix", 1630657442, Denis Efremov, https://git.kernel.org/pub/scm/linux/kernel/git/stable/linux.git/commit/?h=linux-5.14.y&id=ebf67b94ca7a6a17f73812433b8ccd6e76754d26, note: ebf67b94ca7a in stable/linux-5.14.y referred to this regression
HISTORY: Re: [PATCH] Revert "floppy: reintroduce O_NDELAY fix", 1632137352, Thorsten Leemhuis, https://lore.kernel.org/regressions/8d83985a-68a6-13f9-42b6-a6980c9f853c@leemhuis.info/, monitor: https://lore.kernel.org/linux-block/de10cb47-34d1-5a88-7751-225ca380f735@compro.net/
LATEST: Re: [PATCH] Revert "floppy: reintroduce O_NDELAY fix", Thorsten Leemhuis, https://lore.kernel.org/regressions/8d83985a-68a6-13f9-42b6-a6980c9f853c@leemhuis.info/, 1632137352, PatchKind.0

[onlntest_0_1]
REGRESSION: Revert "floppy: reintroduce O_NDELAY fix", 8a0c014cd205 (v5.12-rc1-dontuse), https://git.kernel.org/pub/scm/linux/kernel/git/torvalds/linux.git/commit/?h=master&id=8a0c014cd20516ade9654fc13b51345ec58e7be8, mainline, master, previous: culprit indentified
INITIAL_REPORT: 1628408566, Revert "floppy: reintroduce O_NDELAY fix", Denis Efremov, efremov@linux.com, https://lore.kernel.org/lkml/20210808074246.33449-1-efremov@linux.com/
LINK: [BUG] FLOPPY DRIVER since 5.10.20, https://lore.kernel.org/lkml/de10cb47-34d1-5a88-7751-225ca380f735@compro.net/ [monitored]
LINK: [RFC PATCH 0/5] selftests: floppy: basic tests, https://lore.kernel.org/lkml/20210818154646.925351-1-efremov@linux.com/ [monitored]
LINK: [GIT PULL] Floppy patch for 5.15, https://lore.kernel.org/lkml/388418f4-2b9a-6fed-836c-a004369dc7c0@linux.com/ [monitored]
SOLVED: fixed, 1630375306, v5.15-rc1, https://git.kernel.org/pub/scm/linux/kernel/git/torvalds/linux.git/commit/?h=master&id=c7e9d0020361f4308a70cdfd6d5335e273eb8717, Revert "floppy: reintroduce O_NDELAY fix"
ACTIVITY: [BUG] FLOPPY DRIVER since 5.10.20, Mark Hounschell, https://lore.kernel.org/lkml/de10cb47-34d1-5a88-7751-225ca380f735@compro.net/, 1627066070, PatchKind.0
ACTIVITY: Re: [BUG] FLOPPY DRIVER since 5.10.20, Denis Efremov, https://lore.kernel.org/lkml/e49603c2-ac36-12b0-57cf-ff5ab30115bc@linux.com/, 1627286265, PatchKind.0
ACTIVITY: Re: [BUG] FLOPPY DRIVER since 5.10.20, Mark Hounschell, https://lore.kernel.org/lkml/2f4037b6-7ab3-9592-aaf0-dfcda19d61bc@cfl.rr.com/, 1627298131, PatchKind.0
ACTIVITY: Re: [BUG] FLOPPY DRIVER since 5.10.20, Mark Hounschell, https://lore.kernel.org/lkml/f5501a7c-4387-259d-66d2-f10db0cf36ff@cfl.rr.com/, 1627298254, PatchKind.0
ACTIVITY: Re: [BUG] FLOPPY DRIVER since 5.10.20, Denis Efremov, https://lore.kernel.org/lkml/f1277dcb-6bf8-b149-ad4e-68a4109d4e67@linux.com/, 1627299429, PatchKind.0
ACTIVITY: Re: [BUG] FLOPPY DRIVER since 5.10.20, Mark Hounschell, https://lore.kernel.org/lkml/1cf8e751-db77-441e-53b4-d6e979bbe046@compro.net/, 1627302228, PatchKind.0
ACTIVITY: Re: [BUG] FLOPPY DRIVER since 5.10.20, Denis Efremov, https://lore.kernel.org/lkml/751150dd-251f-bc68-0cd0-4a10b70ab79a@linux.com/, 1627317256, PatchKind.0
ACTIVITY: Re: [BUG] FLOPPY DRIVER since 5.10.20, Denis Efremov, https://lore.kernel.org/lkml/ffb8ca1c-ac8c-95c4-c05a-1269c4831b0a@linux.com/, 1627622101, PatchKind.0
ACTIVITY: Re: [BUG] FLOPPY DRIVER since 5.10.20, Kurt Garloff, https://lore.kernel.org/lkml/9d46f063-8d8d-95ee-e262-9300f54d527c@garloff.de/, 1627816483, PatchKind.0
ACTIVITY: Revert "floppy: reintroduce O_NDELAY fix", Denis Efremov, https://lore.kernel.org/lkml/20210808074246.33449-1-efremov@linux.com/, 1628408566, PatchKind.0
ACTIVITY: [PATCH] Revert "floppy: reintroduce O_NDELAY fix", Denis Efremov, https://lore.kernel.org/lkml/20210808074246.33449-1-efremov@linux.com/, 1628408566, PatchKind.SIGNEDOFF|SUBJECT|DIFF
ACTIVITY: Re: [PATCH] Revert "floppy: reintroduce O_NDELAY fix", Jiri Kosina, https://lore.kernel.org/lkml/nycvar.YFH.7.76.2108160914070.8253@cbobk.fhfr.pm/, 1629098250, PatchKind.0
ACTIVITY: Re: [PATCH] Revert "floppy: reintroduce O_NDELAY fix", Jiri Kosina, https://lore.kernel.org/lkml/nycvar.YFH.7.76.2108160914070.8253@cbobk.fhfr.pm/, 1629098250, PatchKind.0
ACTIVITY: [RFC PATCH 0/5] selftests: floppy: basic tests, Denis Efremov, https://lore.kernel.org/lkml/20210818154646.925351-1-efremov@linux.com/, 1629301601, PatchKind.0
ACTIVITY: [RFC PATCH 1/5] checkpatch: improve handling of revert commits, Denis Efremov, https://lore.kernel.org/lkml/20210818154646.925351-2-efremov@linux.com/, 1629301602, PatchKind.SIGNEDOFF|DIFF
ACTIVITY: [RFC PATCH 2/5] gen_initramfs.sh: use absolute path for gen_init_cpio, Denis Efremov, https://lore.kernel.org/lkml/20210818154646.925351-3-efremov@linux.com/, 1629301603, PatchKind.SIGNEDOFF|DIFF
ACTIVITY: [RFC PATCH 3/5] selftests: floppy: add basic tests for opening an empty device, Denis Efremov, https://lore.kernel.org/lkml/20210818154646.925351-4-efremov@linux.com/, 1629301604, PatchKind.SIGNEDOFF|DIFF
ACTIVITY: [RFC PATCH 4/5] selftests: floppy: add basic tests for a readonly disk, Denis Efremov, https://lore.kernel.org/lkml/20210818154646.925351-5-efremov@linux.com/, 1629301605, PatchKind.SIGNEDOFF|DIFF
ACTIVITY: [RFC PATCH 5/5] selftests: floppy: add basic rdwr tests, Denis Efremov, https://lore.kernel.org/lkml/20210818154646.925351-6-efremov@linux.com/, 1629301606, PatchKind.SIGNEDOFF|DIFF
ACTIVITY: Re: [PATCH] Revert "floppy: reintroduce O_NDELAY fix", Denis Efremov, https://lore.kernel.org/lkml/5ca95b90-c6e0-99b3-b129-75dc05cfb1d4@linux.com/, 1629302038, PatchKind.0
ACTIVITY: Re: [PATCH] Revert "floppy: reintroduce O_NDELAY fix", Denis Efremov, https://lore.kernel.org/lkml/5ca95b90-c6e0-99b3-b129-75dc05cfb1d4@linux.com/, 1629302038, PatchKind.0
ACTIVITY: Re: [RFC PATCH 1/5] checkpatch: improve handling of revert commits, Joe Perches, https://lore.kernel.org/lkml/cc5801790fea258e20fa6b7e26de7806ae8e0dda.camel@perches.com/, 1629302434, PatchKind.0
ACTIVITY: Re: [RFC PATCH 1/5] checkpatch: improve handling of revert commits, Denis Efremov, https://lore.kernel.org/lkml/3d347d4b-1576-754f-8633-ba6084cc0661@linux.com/, 1629303679, PatchKind.0
ACTIVITY: Re: [RFC PATCH 1/5] checkpatch: improve handling of revert commits, Joe Perches, https://lore.kernel.org/lkml/71535d629266751273c15cc05dd7c987cb9c43b6.camel@perches.com/, 1629318076, PatchKind.0
ACTIVITY: Re: [RFC PATCH 1/5] checkpatch: improve handling of revert commits, Andrew Morton, https://lore.kernel.org/lkml/20210818133551.3287f097f4c70742ab6b762f@linux-foundation.org/, 1629318951, PatchKind.0
ACTIVITY: Re: [RFC PATCH 1/5] checkpatch: improve handling of revert commits, Joe Perches, https://lore.kernel.org/lkml/23c8ebaa0921d5597df9fc1d6cbbcc4f354f80c5.camel@perches.com/, 1629321743, PatchKind.DIFF
ACTIVITY: Re: [RFC PATCH 2/5] gen_initramfs.sh: use absolute path for gen_init_cpio, Masahiro Yamada, https://lore.kernel.org/lkml/CAK7LNASTa%2B_d17wF6NW6GHC7Y%2B_RrXYZuo0MzzbsNnaRn8KJuQ@mail.gmail.com/, 1629332663, PatchKind.0
ACTIVITY: Re: [RFC PATCH 1/5] checkpatch: improve handling of revert commits, Denis Efremov, https://lore.kernel.org/lkml/c31b2007-26a9-34e0-8c9a-8e11a00ce69f@linux.com/, 1629402749, PatchKind.0
ACTIVITY: Re: [RFC PATCH 2/5] gen_initramfs.sh: use absolute path for gen_init_cpio, Denis Efremov, https://lore.kernel.org/lkml/e90603ee-61e0-4530-34dc-087e40c94aa1@linux.com/, 1629406303, PatchKind.0
ACTIVITY: Re: [RFC PATCH 1/5] checkpatch: improve handling of revert commits, Joe Perches, https://lore.kernel.org/lkml/8db9a7d938b2b1a1bdbd0224246e047c83581334.camel@perches.com/, 1629409457, PatchKind.DIFF
ACTIVITY: Re: [RFC PATCH 1/5] checkpatch: improve handling of revert commits, Joe Perches, https://lore.kernel.org/lkml/ac2587d3d4b7ce87e8922380e36d7864bfb54262.camel@perches.com/, 1629411435, PatchKind.0
ACTIVITY: Re: [RFC PATCH 2/5] gen_initramfs.sh: use absolute path for gen_init_cpio, Masahiro Yamada, https://lore.kernel.org/lkml/CAK7LNARKDO1-g7At8q%2BivCHm2aDNGupHWoqAt3NRwNTShggeFQ@mail.gmail.com/, 1629425997, PatchKind.0
ACTIVITY: Re: [RFC PATCH 1/5] checkpatch: improve handling of revert commits, Denis Efremov, https://lore.kernel.org/lkml/7eda27d1-9e9f-dfd6-3a54-6c592a797ea5@linux.com/, 1629528431, PatchKind.0
ACTIVITY: Re: [RFC PATCH 1/5] checkpatch: improve handling of revert commits, Joe Perches, https://lore.kernel.org/lkml/4bf2c7360206025731928fa1c8ad95faa9e65ab8.camel@perches.com/, 1629529958, PatchKind.0
ACTIVITY: Re: [RFC PATCH 1/5] checkpatch: improve handling of revert commits, Denis Efremov, https://lore.kernel.org/lkml/17ee07ea-d768-0099-cad7-43b5b5c75560@linux.com/, 1629531311, PatchKind.0
ACTIVITY: [GIT PULL] Floppy patch for 5.15, Denis Efremov, https://lore.kernel.org/lkml/388418f4-2b9a-6fed-836c-a004369dc7c0@linux.com/, 1630231710, PatchKind.0
ACTIVITY: Re: [GIT PULL] Floppy patch for 5.15, Jens Axboe, https://lore.kernel.org/lkml/0d3e8324-18ee-32c4-f666-21971bd8f334@kernel.dk/, 1630241547, PatchKind.0
ACTIVITY: Re: [PATCH] Revert "floppy: reintroduce O_NDELAY fix", Thorsten Leemhuis, https://lore.kernel.org/lkml/a11ba91f-a520-e6ab-5566-dfc9fd934440@leemhuis.info/, 1630315204, PatchKind.0
ACTIVITY: Re: [PATCH] Revert "floppy: reintroduce O_NDELAY fix", Thorsten Leemhuis, https://lore.kernel.org/lkml/a11ba91f-a520-e6ab-5566-dfc9fd934440@leemhuis.info/, 1630315204, PatchKind.0
ACTIVITY: Commit c7e9d0020361 in next, Denis Efremov, https://git.kernel.org/pub/scm/linux/kernel/git/next/linux-next.git/commit/?h=master&id=c7e9d0020361f4308a70cdfd6d5335e273eb8717, 1630375306, PatchKind.0
ACTIVITY: Commit c7e9d0020361 in mainline, Denis Efremov, https://git.kernel.org/pub/scm/linux/kernel/git/torvalds/linux.git/commit/?h=master&id=c7e9d0020361f4308a70cdfd6d5335e273eb8717, 1630375306, PatchKind.0
ACTIVITY: Commit c7e9d0020361 in stable/linux-5.15.y, Denis Efremov, https://git.kernel.org/pub/scm/linux/kernel/git/stable/linux.git/commit/?h=linux-5.15.y&id=c7e9d0020361f4308a70cdfd6d5335e273eb8717, 1630375306, PatchKind.0
ACTIVITY: Commit c7e9d0020361 in stable/linux-5.16.y, Denis Efremov, https://git.kernel.org/pub/scm/linux/kernel/git/stable/linux.git/commit/?h=linux-5.16.y&id=c7e9d0020361f4308a70cdfd6d5335e273eb8717, 1630375306, PatchKind.0
ACTIVITY: Commit c7e9d0020361 in stable/linux-5.17.y, Denis Efremov, https://git.kernel.org/pub/scm/linux/kernel/git/stable/linux.git/commit/?h=linux-5.17.y&id=c7e9d0020361f4308a70cdfd6d5335e273eb8717, 1630375306, PatchKind.0
ACTIVITY: Commit c7e9d0020361 in stable/linux-5.18.y, Denis Efremov, https://git.kernel.org/pub/scm/linux/kernel/git/stable/linux.git/commit/?h=linux-5.18.y&id=c7e9d0020361f4308a70cdfd6d5335e273eb8717, 1630375306, PatchKind.0
ACTIVITY: Commit d25b48d4d3ef in stable/linux-4.4.y, Denis Efremov, https://git.kernel.org/pub/scm/linux/kernel/git/stable/linux.git/commit/?h=linux-4.4.y&id=d25b48d4d3ef1ce75ce5628a8a3ba60a2427090f, 1630654988, PatchKind.0
ACTIVITY: Commit 05f67ba7e677 in stable/linux-4.9.y, Denis Efremov, https://git.kernel.org/pub/scm/linux/kernel/git/stable/linux.git/commit/?h=linux-4.9.y&id=05f67ba7e6773d561866daf5346b19b7bcb991b9, 1630655081, PatchKind.0
ACTIVITY: Commit 4ac05376dbb8 in stable/linux-4.14.y, Denis Efremov, https://git.kernel.org/pub/scm/linux/kernel/git/stable/linux.git/commit/?h=linux-4.14.y&id=4ac05376dbb8539d882ffa2069be680859920ce7, 1630655786, PatchKind.0
ACTIVITY: Commit 61b224e29ec3 in stable/linux-4.19.y, Denis Efremov, https://git.kernel.org/pub/scm/linux/kernel/git/stable/linux.git/commit/?h=linux-4.19.y&id=61b224e29ec37cbf39111270f2c7143bfe222b20, 1630655883, PatchKind.0
ACTIVITY: Commit 67871ada3a53 in stable/linux-5.4.y, Denis Efremov, https://git.kernel.org/pub/scm/linux/kernel/git/stable/linux.git/commit/?h=linux-5.4.y&id=67871ada3a53895df959305b0bba84a91081a90e, 1630656496, PatchKind.0
ACTIVITY: Commit 17982c664f8b in stable/linux-5.10.y, Denis Efremov, https://git.kernel.org/pub/scm/linux/kernel/git/stable/linux.git/commit/?h=linux-5.10.y&id=17982c664f8b2c9543241552331b008ad34d2648, 1630656571, PatchKind.0
ACTIVITY: Commit ba17363729d2 in stable/linux-5.13.y, Denis Efremov, https://git.kernel.org/pub/scm/linux/kernel/git/stable/linux.git/commit/?h=linux-5.13.y&id=ba17363729d21aefa58431d1dca717d96c7b5bab, 1630657386, PatchKind.0
ACTIVITY: Commit ebf67b94ca7a in stable/linux-5.14.y, Denis Efremov, https://git.kernel.org/pub/scm/linux/kernel/git/stable/linux.git/commit/?h=linux-5.14.y&id=ebf67b94ca7a6a17f73812433b8ccd6e76754d26, 1630657442, PatchKind.0
ACTIVITY: Re: [PATCH] Revert "floppy: reintroduce O_NDELAY fix", Thorsten Leemhuis, https://lore.kernel.org/regressions/8d83985a-68a6-13f9-42b6-a6980c9f853c@leemhuis.info/, 1632137352, PatchKind.0
ACTIVITY: Re: [PATCH] Revert "floppy: reintroduce O_NDELAY fix", Thorsten Leemhuis, https://lore.kernel.org/regressions/8d83985a-68a6-13f9-42b6-a6980c9f853c@leemhuis.info/, 1632137352, PatchKind.0
HISTORY: Re:Revert "floppy: reintroduce O_NDELAY fix", 1630315204, Thorsten Leemhuis, https://lore.kernel.org/lkml/a11ba91f-a520-e6ab-5566-dfc9fd934440@leemhuis.info/, introduced: 8a0c014cd20516ade9654fc13b51345ec58e7be8 ^
HISTORY: Re: [PATCH] Revert "floppy: reintroduce O_NDELAY fix", 1630315204, Thorsten Leemhuis, https://lore.kernel.org/lkml/a11ba91f-a520-e6ab-5566-dfc9fd934440@leemhuis.info/, monitor: https://lore.kernel.org/lkml/20210818154646.925351-1-efremov@linux.com/
HISTORY: Re: [PATCH] Revert "floppy: reintroduce O_NDELAY fix", 1630315204, Thorsten Leemhuis, https://lore.kernel.org/lkml/a11ba91f-a520-e6ab-5566-dfc9fd934440@leemhuis.info/, monitor: https://lore.kernel.org/lkml/388418f4-2b9a-6fed-836c-a004369dc7c0@linux.com/
HISTORY: Revert "floppy: reintroduce O_NDELAY fix", 1630375306, Denis Efremov, https://git.kernel.org/pub/scm/linux/kernel/git/next/linux-next.git/commit/?h=master&id=c7e9d0020361f4308a70cdfd6d5335e273eb8717, fix: c7e9d0020361 in next referred to this regression
HISTORY: Revert "floppy: reintroduce O_NDELAY fix", 1630375306, Denis Efremov, https://git.kernel.org/pub/scm/linux/kernel/git/torvalds/linux.git/commit/?h=master&id=c7e9d0020361f4308a70cdfd6d5335e273eb8717, fixed: c7e9d0020361 in mainline referred to this regression
HISTORY: Revert "floppy: reintroduce O_NDELAY fix", 1630375306, Denis Efremov, https://git.kernel.org/pub/scm/linux/kernel/git/stable/linux.git/commit/?h=linux-5.15.y&id=c7e9d0020361f4308a70cdfd6d5335e273eb8717, note: c7e9d0020361 in stable/linux-5.15.y referred to this regression
HISTORY: Revert "floppy: reintroduce O_NDELAY fix", 1630375306, Denis Efremov, https://git.kernel.org/pub/scm/linux/kernel/git/stable/linux.git/commit/?h=linux-5.16.y&id=c7e9d0020361f4308a70cdfd6d5335e273eb8717, note: c7e9d0020361 in stable/linux-5.16.y referred to this regression
HISTORY: Revert "floppy: reintroduce O_NDELAY fix", 1630375306, Denis Efremov, https://git.kernel.org/pub/scm/linux/kernel/git/stable/linux.git/commit/?h=linux-5.17.y&id=c7e9d0020361f4308a70cdfd6d5335e273eb8717, note: c7e9d0020361 in stable/linux-5.17.y referred to this regression
HISTORY: Revert "floppy: reintroduce O_NDELAY fix", 1630375306, Denis Efremov, https://git.kernel.org/pub/scm/linux/kernel/git/stable/linux.git/commit/?h=linux-5.18.y&id=c7e9d0020361f4308a70cdfd6d5335e273eb8717, note: c7e9d0020361 in stable/linux-5.18.y referred to this regression
HISTORY: Revert "floppy: reintroduce O_NDELAY fix", 1630654988, Denis Efremov, https://git.kernel.org/pub/scm/linux/kernel/git/stable/linux.git/commit/?h=linux-4.4.y&id=d25b48d4d3ef1ce75ce5628a8a3ba60a2427090f, note: d25b48d4d3ef in stable/linux-4.4.y referred to this regression
HISTORY: Revert "floppy: reintroduce O_NDELAY fix", 1630655081, Denis Efremov, https://git.kernel.org/pub/scm/linux/kernel/git/stable/linux.git/commit/?h=linux-4.9.y&id=05f67ba7e6773d561866daf5346b19b7bcb991b9, note: 05f67ba7e677 in stable/linux-4.9.y referred to this regression
HISTORY: Revert "floppy: reintroduce O_NDELAY fix", 1630655786, Denis Efremov, https://git.kernel.org/pub/scm/linux/kernel/git/stable/linux.git/commit/?h=linux-4.14.y&id=4ac05376dbb8539d882ffa2069be680859920ce7, note: 4ac05376dbb8 in stable/linux-4.14.y referred to this regression
HISTORY: Revert "floppy: reintroduce O_NDELAY fix", 1630655883, Denis Efremov, https://git.kernel.org/pub/scm/linux/kernel/git/stable/linux.git/commit/?h=linux-4.19.y&id=61b224e29ec37cbf39111270f2c7143bfe222b20, note: 61b224e29ec3 in stable/linux-4.19.y referred to this regression
HISTORY: Revert "floppy: reintroduce O_NDELAY fix", 1630656496, Denis Efremov, https://git.kernel.org/pub/scm/linux/kernel/git/stable/linux.git/commit/?h=linux-5.4.y&id=67871ada3a53895df959305b0bba84a91081a90e, note: 67871ada3a53 in stable/linux-5.4.y referred to this regression
HISTORY: Revert "floppy: reintroduce O_NDELAY fix", 1630656571, Denis Efremov, https://git.kernel.org/pub/scm/linux/kernel/git/stable/linux.git/commit/?h=linux-5.10.y&id=17982c664f8b2c9543241552331b008ad34d2648, note: 17982c664f8b in stable/linux-5.10.y referred to this regression
HISTORY: Revert "floppy: reintroduce O_NDELAY fix", 1630657386, Denis Efremov, https://git.kernel.org/pub/scm/linux/kernel/git/stable/linux.git/commit/?h=linux-5.13.y&id=ba17363729d21aefa58431d1dca717d96c7b5bab, note: ba17363729d2 in stable/linux-5.13.y referred to this regression
HISTORY: Revert "floppy: reintroduce O_NDELAY fix", 1630657442, Denis Efremov, https://git.kernel.org/pub/scm/linux/kernel/git/stable/linux.git/commit/?h=linux-5.14.y&id=ebf67b94ca7a6a17f73812433b8ccd6e76754d26, note: ebf67b94ca7a in stable/linux-5.14.y referred to this regression
HISTORY: Re: [PATCH] Revert "floppy: reintroduce O_NDELAY fix", 1632137352, Thorsten Leemhuis, https://lore.kernel.org/regressions/8d83985a-68a6-13f9-42b6-a6980c9f853c@leemhuis.info/, monitor: https://lore.kernel.org/linux-block/de10cb47-34d1-5a88-7751-225ca380f735@compro.net/
LATEST: Re: [PATCH] Revert "floppy: reintroduce O_NDELAY fix", Thorsten Leemhuis, https://lore.kernel.org/regressions/8d83985a-68a6-13f9-42b6-a6980c9f853c@leemhuis.info/, 1632137352, PatchKind.0
REGRESSION: mhi: ath11k resume fails on some devices, 020d3b26c07a (v5.13-rc1), https://git.kernel.org/pub/scm/linux/kernel/git/torvalds/linux.git/commit/?h=master&id=020d3b26c07abe274ac17f64999bbd3bf3342195, mainline, master, previous: culprit indentified
INITIAL_REPORT: 1631779209, mhi: ath11k resume fails on some devices, Kalle Valo, kvalo@codeaurora.org, https://lore.kernel.org/regressions/871r5p0x2u.fsf@codeaurora.org/
SOLVED: fixed, 1639332994, v5.16-rc5, https://git.kernel.org/pub/scm/linux/kernel/git/torvalds/linux.git/commit/?h=master&id=cab2d3fd6866e089b5c50db09dece131f85bfebd, bus: mhi: core: Add support for forced PM resume
ACTIVITY: mhi: ath11k resume fails on some devices, Kalle Valo, https://lore.kernel.org/regressions/871r5p0x2u.fsf@codeaurora.org/, 1631779209, PatchKind.0
ACTIVITY: Re: [regression] mhi: ath11k resume fails on some devices, Loic Poulain, https://lore.kernel.org/regressions/CAMZdPi8UJLvBFQd8-nf-iHAQh8cEuihq97PUFfZ7Q=rxRQoPsg@mail.gmail.com/, 1631787490, PatchKind.0
ACTIVITY: Re: [regression] mhi: ath11k resume fails on some devices, Manivannan Sadhasivam, https://lore.kernel.org/regressions/20210916111218.GA12918@thinkpad/, 1631790738, PatchKind.0
ACTIVITY: Re: [regression] mhi: ath11k resume fails on some devices, Manivannan Sadhasivam, https://lore.kernel.org/regressions/20210916163529.GA9027@thinkpad/, 1631810129, PatchKind.0
ACTIVITY: Re: [regression] mhi: ath11k resume fails on some devices, Kalle Valo, https://lore.kernel.org/regressions/87k0jgxyjp.fsf@codeaurora.org/, 1631810522, PatchKind.0
ACTIVITY: Re: [regression] mhi: ath11k resume fails on some devices, Manivannan Sadhasivam, https://lore.kernel.org/regressions/20210916171927.GB9027@thinkpad/, 1631812767, PatchKind.0
ACTIVITY: Re: [regression] mhi: ath11k resume fails on some devices, Carl Huang, https://lore.kernel.org/regressions/b7c0906041dcafb43be215bd4f55326a@codeaurora.org/, 1632386083, PatchKind.0
ACTIVITY: Re: [regression] mhi: ath11k resume fails on some devices, Manivannan Sadhasivam, https://lore.kernel.org/regressions/20210923085926.GD6083@thinkpad/, 1632387566, PatchKind.DIFF
ACTIVITY: Re: [regression] mhi: ath11k resume fails on some devices, Carl Huang, https://lore.kernel.org/regressions/6912b6840858c0554922c01a0f9c47b8@codeaurora.org/, 1632389216, PatchKind.0
ACTIVITY: Re: [regression] mhi: ath11k resume fails on some devices, Loic Poulain, https://lore.kernel.org/regressions/CAMZdPi-3WOj_TT7diUJJ00RaoHgKw-tu-heQJu6vDUK1yZ4CZg@mail.gmail.com/, 1632394208, PatchKind.0
ACTIVITY: Re: [regression] mhi: ath11k resume fails on some devices, Kalle Valo, https://lore.kernel.org/regressions/877df6tlnq.fsf@codeaurora.org/, 1632472601, PatchKind.0
ACTIVITY: Re: [regression] mhi: ath11k resume fails on some devices, Kalle Valo, https://lore.kernel.org/regressions/8735putk82.fsf@codeaurora.org/, 1632474461, PatchKind.0
ACTIVITY: Re: [regression] mhi: ath11k resume fails on some devices, Loic Poulain, https://lore.kernel.org/regressions/CAMZdPi8P7YZPhPir%2BWfS3cY_a7He1m2Pq2uqBhczPdEeoNRb0Q@mail.gmail.com/, 1632476635, PatchKind.0
ACTIVITY: Re: [regression] mhi: ath11k resume fails on some devices, Manivannan Sadhasivam, https://lore.kernel.org/regressions/20210924095755.GB19050@workstation/, 1632477475, PatchKind.0
ACTIVITY: Re: [regression] mhi: ath11k resume fails on some devices, Manivannan Sadhasivam, https://lore.kernel.org/regressions/20210924100034.GC19050@workstation/, 1632477634, PatchKind.0
ACTIVITY: Re: [regression] mhi: ath11k resume fails on some devices, Thorsten Leemhuis, https://lore.kernel.org/regressions/6d62738a-b213-dc9c-c13f-7d4eaa7e46b8@leemhuis.info/, 1632591631, PatchKind.0
ACTIVITY: Re: [regression] mhi: ath11k resume fails on some devices, Kalle Valo, https://lore.kernel.org/regressions/87a6jl9ndo.fsf@codeaurora.org/, 1633600099, PatchKind.0
ACTIVITY: Re: [regression] mhi: ath11k resume fails on some devices, Kalle Valo, https://lore.kernel.org/regressions/874k9t9n13.fsf@codeaurora.org/, 1633600552, PatchKind.0
ACTIVITY: Re: [regression] mhi: ath11k resume fails on some devices, Kalle Valo, https://lore.kernel.org/regressions/87ee8hgqni.fsf@codeaurora.org/, 1634645521, PatchKind.0
ACTIVITY: Re: [regression] mhi: ath11k resume fails on some devices, Manivannan Sadhasivam, https://lore.kernel.org/regressions/20211021100111.GC7580@workstation/, 1634810471, PatchKind.0
ACTIVITY: Re: [regression] mhi: ath11k resume fails on some devices, Manivannan Sadhasivam, https://lore.kernel.org/regressions/20211021100305.GD7580@workstation/, 1634810585, PatchKind.0
ACTIVITY: Re: [regression] mhi: ath11k resume fails on some devices, Manivannan Sadhasivam, https://lore.kernel.org/regressions/20211118174145.GA31300@thinkpad/, 1637257305, PatchKind.0
ACTIVITY: Commit cab2d3fd6866 in next, Loic Poulain, https://git.kernel.org/pub/scm/linux/kernel/git/next/linux-next.git/commit/?h=master&id=cab2d3fd6866e089b5c50db09dece131f85bfebd, 1639332994, PatchKind.0
ACTIVITY: Commit cab2d3fd6866 in mainline, Loic Poulain, https://git.kernel.org/pub/scm/linux/kernel/git/torvalds/linux.git/commit/?h=master&id=cab2d3fd6866e089b5c50db09dece131f85bfebd, 1639332994, PatchKind.0
ACTIVITY: Commit cab2d3fd6866 in stable/linux-5.16.y, Loic Poulain, https://git.kernel.org/pub/scm/linux/kernel/git/stable/linux.git/commit/?h=linux-5.16.y&id=cab2d3fd6866e089b5c50db09dece131f85bfebd, 1639332994, PatchKind.0
ACTIVITY: Commit cab2d3fd6866 in stable/linux-5.17.y, Loic Poulain, https://git.kernel.org/pub/scm/linux/kernel/git/stable/linux.git/commit/?h=linux-5.17.y&id=cab2d3fd6866e089b5c50db09dece131f85bfebd, 1639332994, PatchKind.0
ACTIVITY: Commit cab2d3fd6866 in stable/linux-5.18.y, Loic Poulain, https://git.kernel.org/pub/scm/linux/kernel/git/stable/linux.git/commit/?h=linux-5.18.y&id=cab2d3fd6866e089b5c50db09dece131f85bfebd, 1639332994, PatchKind.0
ACTIVITY: Commit 47b355f25b55 in stable/linux-5.15.y, Loic Poulain, https://git.kernel.org/pub/scm/linux/kernel/git/stable/linux.git/commit/?h=linux-5.15.y&id=47b355f25b55c98c63ed7346faa3e1613c895f7e, 1639475842, PatchKind.0
HISTORY: Re:mhi: ath11k resume fails on some devices, 1632591631, Thorsten Leemhuis, https://lore.kernel.org/regressions/6d62738a-b213-dc9c-c13f-7d4eaa7e46b8@leemhuis.info/, introduced: 020d3b26c07abe274ac17f64999bbd3bf3342195 ^
HISTORY: Re: [regression] mhi: ath11k resume fails on some devices, 1636716977, Thorsten Leemhuis, https://lore.kernel.org/regressions/be20e91d-9285-b044-e415-c3728c399c1b@leemhuis.info/, poke
HISTORY: Re: [regression] mhi: ath11k resume fails on some devices, 1638344049, Thorsten Leemhuis, https://lore.kernel.org/regressions/915c3760-181e-bbac-aec4-1e20d0dab2a9@leemhuis.info/, poke
HISTORY: bus: mhi: core: Add support for forced PM resume, 1639332994, Loic Poulain, https://git.kernel.org/pub/scm/linux/kernel/git/next/linux-next.git/commit/?h=master&id=cab2d3fd6866e089b5c50db09dece131f85bfebd, fix: cab2d3fd6866 in next referred to this regression
HISTORY: bus: mhi: core: Add support for forced PM resume, 1639332994, Loic Poulain, https://git.kernel.org/pub/scm/linux/kernel/git/torvalds/linux.git/commit/?h=master&id=cab2d3fd6866e089b5c50db09dece131f85bfebd, fixed: cab2d3fd6866 in mainline referred to this regression
HISTORY: bus: mhi: core: Add support for forced PM resume, 1639332994, Loic Poulain, https://git.kernel.org/pub/scm/linux/kernel/git/stable/linux.git/commit/?h=linux-5.16.y&id=cab2d3fd6866e089b5c50db09dece131f85bfebd, note: cab2d3fd6866 in stable/linux-5.16.y referred to this regression
HISTORY: bus: mhi: core: Add support for forced PM resume, 1639332994, Loic Poulain, https://git.kernel.org/pub/scm/linux/kernel/git/stable/linux.git/commit/?h=linux-5.17.y&id=cab2d3fd6866e089b5c50db09dece131f85bfebd, note: cab2d3fd6866 in stable/linux-5.17.y referred to this regression
HISTORY: bus: mhi: core: Add support for forced PM resume, 1639332994, Loic Poulain, https://git.kernel.org/pub/scm/linux/kernel/git/stable/linux.git/commit/?h=linux-5.18.y&id=cab2d3fd6866e089b5c50db09dece131f85bfebd, note: cab2d3fd6866 in stable/linux-5.18.y referred to this regression
HISTORY: bus: mhi: core: Add support for forced PM resume, 1639475842, Loic Poulain, https://git.kernel.org/pub/scm/linux/kernel/git/stable/linux.git/commit/?h=linux-5.15.y&id=47b355f25b55c98c63ed7346faa3e1613c895f7e, note: 47b355f25b55 in stable/linux-5.15.y referred to this regression
LATEST: Commit 47b355f25b55 in stable/linux-5.15.y, Loic Poulain, https://git.kernel.org/pub/scm/linux/kernel/git/stable/linux.git/commit/?h=linux-5.15.y&id=47b355f25b55c98c63ed7346faa3e1613c895f7e, 1639475842, PatchKind.0

[onlntest_0_2]
REGRESSION: Revert "floppy: reintroduce O_NDELAY fix", 8a0c014cd205 (v5.12-rc1-dontuse), https://git.kernel.org/pub/scm/linux/kernel/git/torvalds/linux.git/commit/?h=master&id=8a0c014cd20516ade9654fc13b51345ec58e7be8, mainline, master, previous: culprit indentified
INITIAL_REPORT: 1628408566, Revert "floppy: reintroduce O_NDELAY fix", Denis Efremov, efremov@linux.com, https://lore.kernel.org/lkml/20210808074246.33449-1-efremov@linux.com/
LINK: [BUG] FLOPPY DRIVER since 5.10.20, https://lore.kernel.org/lkml/de10cb47-34d1-5a88-7751-225ca380f735@compro.net/ [monitored]
LINK: [RFC PATCH 0/5] selftests: floppy: basic tests, https://lore.kernel.org/lkml/20210818154646.925351-1-efremov@linux.com/ [monitored]
LINK: [GIT PULL] Floppy patch for 5.15, https://lore.kernel.org/lkml/388418f4-2b9a-6fed-836c-a004369dc7c0@linux.com/ [monitored]
SOLVED: fixed, 1630375306, v5.15-rc1, https://git.kernel.org/pub/scm/linux/kernel/git/torvalds/linux.git/commit/?h=master&id=c7e9d0020361f4308a70cdfd6d5335e273eb8717, Revert "floppy: reintroduce O_NDELAY fix"
ACTIVITY: [BUG] FLOPPY DRIVER since 5.10.20, Mark Hounschell, https://lore.kernel.org/lkml/de10cb47-34d1-5a88-7751-225ca380f735@compro.net/, 1627066070, PatchKind.0
ACTIVITY: Re: [BUG] FLOPPY DRIVER since 5.10.20, Denis Efremov, https://lore.kernel.org/lkml/e49603c2-ac36-12b0-57cf-ff5ab30115bc@linux.com/, 1627286265, PatchKind.0
ACTIVITY: Re: [BUG] FLOPPY DRIVER since 5.10.20, Mark Hounschell, https://lore.kernel.org/lkml/2f4037b6-7ab3-9592-aaf0-dfcda19d61bc@cfl.rr.com/, 1627298131, PatchKind.0
ACTIVITY: Re: [BUG] FLOPPY DRIVER since 5.10.20, Mark Hounschell, https://lore.kernel.org/lkml/f5501a7c-4387-259d-66d2-f10db0cf36ff@cfl.rr.com/, 1627298254, PatchKind.0
ACTIVITY: Re: [BUG] FLOPPY DRIVER since 5.10.20, Denis Efremov, https://lore.kernel.org/lkml/f1277dcb-6bf8-b149-ad4e-68a4109d4e67@linux.com/, 1627299429, PatchKind.0
ACTIVITY: Re: [BUG] FLOPPY DRIVER since 5.10.20, Mark Hounschell, https://lore.kernel.org/lkml/1cf8e751-db77-441e-53b4-d6e979bbe046@compro.net/, 1627302228, PatchKind.0
ACTIVITY: Re: [BUG] FLOPPY DRIVER since 5.10.20, Denis Efremov, https://lore.kernel.org/lkml/751150dd-251f-bc68-0cd0-4a10b70ab79a@linux.com/, 1627317256, PatchKind.0
ACTIVITY: Re: [BUG] FLOPPY DRIVER since 5.10.20, Denis Efremov, https://lore.kernel.org/lkml/ffb8ca1c-ac8c-95c4-c05a-1269c4831b0a@linux.com/, 1627622101, PatchKind.0
ACTIVITY: Re: [BUG] FLOPPY DRIVER since 5.10.20, Kurt Garloff, https://lore.kernel.org/lkml/9d46f063-8d8d-95ee-e262-9300f54d527c@garloff.de/, 1627816483, PatchKind.0
ACTIVITY: Revert "floppy: reintroduce O_NDELAY fix", Denis Efremov, https://lore.kernel.org/lkml/20210808074246.33449-1-efremov@linux.com/, 1628408566, PatchKind.0
ACTIVITY: [PATCH] Revert "floppy: reintroduce O_NDELAY fix", Denis Efremov, https://lore.kernel.org/lkml/20210808074246.33449-1-efremov@linux.com/, 1628408566, PatchKind.SIGNEDOFF|SUBJECT|DIFF
ACTIVITY: Re: [PATCH] Revert "floppy: reintroduce O_NDELAY fix", Jiri Kosina, https://lore.kernel.org/lkml/nycvar.YFH.7.76.2108160914070.8253@cbobk.fhfr.pm/, 1629098250, PatchKind.0
ACTIVITY: Re: [PATCH] Revert "floppy: reintroduce O_NDELAY fix", Jiri Kosina, https://lore.kernel.org/lkml/nycvar.YFH.7.76.2108160914070.8253@cbobk.fhfr.pm/, 1629098250, PatchKind.0
ACTIVITY: [RFC PATCH 0/5] selftests: floppy: basic tests, Denis Efremov, https://lore.kernel.org/lkml/20210818154646.925351-1-efremov@linux.com/, 1629301601, PatchKind.0
ACTIVITY: [RFC PATCH 1/5] checkpatch: improve handling of revert commits, Denis Efremov, https://lore.kernel.org/lkml/20210818154646.925351-2-efremov@linux.com/, 1629301602, PatchKind.SIGNEDOFF|DIFF
ACTIVITY: [RFC PATCH 2/5] gen_initramfs.sh: use absolute path for gen_init_cpio, Denis Efremov, https://lore.kernel.org/lkml/20210818154646.925351-3-efremov@linux.com/, 1629301603, PatchKind.SIGNEDOFF|DIFF
ACTIVITY: [RFC PATCH 3/5] selftests: floppy: add basic tests for opening an empty device, Denis Efremov, https://lore.kernel.org/lkml/20210818154646.925351-4-efremov@linux.com/, 1629301604, PatchKind.SIGNEDOFF|DIFF
ACTIVITY: [RFC PATCH 4/5] selftests: floppy: add basic tests for a readonly disk, Denis Efremov, https://lore.kernel.org/lkml/20210818154646.925351-5-efremov@linux.com/, 1629301605, PatchKind.SIGNEDOFF|DIFF
ACTIVITY: [RFC PATCH 5/5] selftests: floppy: add basic rdwr tests, Denis Efremov, https://lore.kernel.org/lkml/20210818154646.925351-6-efremov@linux.com/, 1629301606, PatchKind.SIGNEDOFF|DIFF
ACTIVITY: Re: [PATCH] Revert "floppy: reintroduce O_NDELAY fix", Denis Efremov, https://lore.kernel.org/lkml/5ca95b90-c6e0-99b3-b129-75dc05cfb1d4@linux.com/, 1629302038, PatchKind.0
ACTIVITY: Re: [PATCH] Revert "floppy: reintroduce O_NDELAY fix", Denis Efremov, https://lore.kernel.org/lkml/5ca95b90-c6e0-99b3-b129-75dc05cfb1d4@linux.com/, 1629302038, PatchKind.0
ACTIVITY: Re: [RFC PATCH 1/5] checkpatch: improve handling of revert commits, Joe Perches, https://lore.kernel.org/lkml/cc5801790fea258e20fa6b7e26de7806ae8e0dda.camel@perches.com/, 1629302434, PatchKind.0
ACTIVITY: Re: [RFC PATCH 1/5] checkpatch: improve handling of revert commits, Denis Efremov, https://lore.kernel.org/lkml/3d347d4b-1576-754f-8633-ba6084cc0661@linux.com/, 1629303679, PatchKind.0
ACTIVITY: Re: [RFC PATCH 1/5] checkpatch: improve handling of revert commits, Joe Perches, https://lore.kernel.org/lkml/71535d629266751273c15cc05dd7c987cb9c43b6.camel@perches.com/, 1629318076, PatchKind.0
ACTIVITY: Re: [RFC PATCH 1/5] checkpatch: improve handling of revert commits, Andrew Morton, https://lore.kernel.org/lkml/20210818133551.3287f097f4c70742ab6b762f@linux-foundation.org/, 1629318951, PatchKind.0
ACTIVITY: Re: [RFC PATCH 1/5] checkpatch: improve handling of revert commits, Joe Perches, https://lore.kernel.org/lkml/23c8ebaa0921d5597df9fc1d6cbbcc4f354f80c5.camel@perches.com/, 1629321743, PatchKind.DIFF
ACTIVITY: Re: [RFC PATCH 2/5] gen_initramfs.sh: use absolute path for gen_init_cpio, Masahiro Yamada, https://lore.kernel.org/lkml/CAK7LNASTa%2B_d17wF6NW6GHC7Y%2B_RrXYZuo0MzzbsNnaRn8KJuQ@mail.gmail.com/, 1629332663, PatchKind.0
ACTIVITY: Re: [RFC PATCH 1/5] checkpatch: improve handling of revert commits, Denis Efremov, https://lore.kernel.org/lkml/c31b2007-26a9-34e0-8c9a-8e11a00ce69f@linux.com/, 1629402749, PatchKind.0
ACTIVITY: Re: [RFC PATCH 2/5] gen_initramfs.sh: use absolute path for gen_init_cpio, Denis Efremov, https://lore.kernel.org/lkml/e90603ee-61e0-4530-34dc-087e40c94aa1@linux.com/, 1629406303, PatchKind.0
ACTIVITY: Re: [RFC PATCH 1/5] checkpatch: improve handling of revert commits, Joe Perches, https://lore.kernel.org/lkml/8db9a7d938b2b1a1bdbd0224246e047c83581334.camel@perches.com/, 1629409457, PatchKind.DIFF
ACTIVITY: Re: [RFC PATCH 1/5] checkpatch: improve handling of revert commits, Joe Perches, https://lore.kernel.org/lkml/ac2587d3d4b7ce87e8922380e36d7864bfb54262.camel@perches.com/, 1629411435, PatchKind.0
ACTIVITY: Re: [RFC PATCH 2/5] gen_initramfs.sh: use absolute path for gen_init_cpio, Masahiro Yamada, https://lore.kernel.org/lkml/CAK7LNARKDO1-g7At8q%2BivCHm2aDNGupHWoqAt3NRwNTShggeFQ@mail.gmail.com/, 1629425997, PatchKind.0
ACTIVITY: Re: [RFC PATCH 1/5] checkpatch: improve handling of revert commits, Denis Efremov, https://lore.kernel.org/lkml/7eda27d1-9e9f-dfd6-3a54-6c592a797ea5@linux.com/, 1629528431, PatchKind.0
ACTIVITY: Re: [RFC PATCH 1/5] checkpatch: improve handling of revert commits, Joe Perches, https://lore.kernel.org/lkml/4bf2c7360206025731928fa1c8ad95faa9e65ab8.camel@perches.com/, 1629529958, PatchKind.0
ACTIVITY: Re: [RFC PATCH 1/5] checkpatch: improve handling of revert commits, Denis Efremov, https://lore.kernel.org/lkml/17ee07ea-d768-0099-cad7-43b5b5c75560@linux.com/, 1629531311, PatchKind.0
ACTIVITY: [GIT PULL] Floppy patch for 5.15, Denis Efremov, https://lore.kernel.org/lkml/388418f4-2b9a-6fed-836c-a004369dc7c0@linux.com/, 1630231710, PatchKind.0
ACTIVITY: Re: [GIT PULL] Floppy patch for 5.15, Jens Axboe, https://lore.kernel.org/lkml/0d3e8324-18ee-32c4-f666-21971bd8f334@kernel.dk/, 1630241547, PatchKind.0
ACTIVITY: Re: [PATCH] Revert "floppy: reintroduce O_NDELAY fix", Thorsten Leemhuis, https://lore.kernel.org/lkml/a11ba91f-a520-e6ab-5566-dfc9fd934440@leemhuis.info/, 1630315204, PatchKind.0
ACTIVITY: Re: [PATCH] Revert "floppy: reintroduce O_NDELAY fix", Thorsten Leemhuis, https://lore.kernel.org/lkml/a11ba91f-a520-e6ab-5566-dfc9fd934440@leemhuis.info/, 1630315204, PatchKind.0
ACTIVITY: Commit c7e9d0020361 in next, Denis Efremov, https://git.kernel.org/pub/scm/linux/kernel/git/next/linux-next.git/commit/?h=master&id=c7e9d0020361f4308a70cdfd6d5335e273eb8717, 1630375306, PatchKind.0
ACTIVITY: Commit c7e9d0020361 in mainline, Denis Efremov, https://git.kernel.org/pub/scm/linux/kernel/git/torvalds/linux.git/commit/?h=master&id=c7e9d0020361f4308a70cdfd6d5335e273eb8717, 1630375306, PatchKind.0
ACTIVITY: Commit c7e9d0020361 in stable/linux-5.15.y, Denis Efremov, https://git.kernel.org/pub/scm/linux/kernel/git/stable/linux.git/commit/?h=linux-5.15.y&id=c7e9d0020361f4308a70cdfd6d5335e273eb8717, 1630375306, PatchKind.0
ACTIVITY: Commit c7e9d0020361 in stable/linux-5.16.y, Denis Efremov, https://git.kernel.org/pub/scm/linux/kernel/git/stable/linux.git/commit/?h=linux-5.16.y&id=c7e9d0020361f4308a70cdfd6d5335e273eb8717, 1630375306, PatchKind.0
ACTIVITY: Commit c7e9d0020361 in stable/linux-5.17.y, Denis Efremov, https://git.kernel.org/pub/scm/linux/kernel/git/stable/linux.git/commit/?h=linux-5.17.y&id=c7e9d0020361f4308a70cdfd6d5335e273eb8717, 1630375306, PatchKind.0
ACTIVITY: Commit c7e9d0020361 in stable/linux-5.18.y, Denis Efremov, https://git.kernel.org/pub/scm/linux/kernel/git/stable/linux.git/commit/?h=linux-5.18.y&id=c7e9d0020361f4308a70cdfd6d5335e273eb8717, 1630375306, PatchKind.0
ACTIVITY: Commit d25b48d4d3ef in stable/linux-4.4.y, Denis Efremov, https://git.kernel.org/pub/scm/linux/kernel/git/stable/linux.git/commit/?h=linux-4.4.y&id=d25b48d4d3ef1ce75ce5628a8a3ba60a2427090f, 1630654988, PatchKind.0
ACTIVITY: Commit 05f67ba7e677 in stable/linux-4.9.y, Denis Efremov, https://git.kernel.org/pub/scm/linux/kernel/git/stable/linux.git/commit/?h=linux-4.9.y&id=05f67ba7e6773d561866daf5346b19b7bcb991b9, 1630655081, PatchKind.0
ACTIVITY: Commit 4ac05376dbb8 in stable/linux-4.14.y, Denis Efremov, https://git.kernel.org/pub/scm/linux/kernel/git/stable/linux.git/commit/?h=linux-4.14.y&id=4ac05376dbb8539d882ffa2069be680859920ce7, 1630655786, PatchKind.0
ACTIVITY: Commit 61b224e29ec3 in stable/linux-4.19.y, Denis Efremov, https://git.kernel.org/pub/scm/linux/kernel/git/stable/linux.git/commit/?h=linux-4.19.y&id=61b224e29ec37cbf39111270f2c7143bfe222b20, 1630655883, PatchKind.0
ACTIVITY: Commit 67871ada3a53 in stable/linux-5.4.y, Denis Efremov, https://git.kernel.org/pub/scm/linux/kernel/git/stable/linux.git/commit/?h=linux-5.4.y&id=67871ada3a53895df959305b0bba84a91081a90e, 1630656496, PatchKind.0
ACTIVITY: Commit 17982c664f8b in stable/linux-5.10.y, Denis Efremov, https://git.kernel.org/pub/scm/linux/kernel/git/stable/linux.git/commit/?h=linux-5.10.y&id=17982c664f8b2c9543241552331b008ad34d2648, 1630656571, PatchKind.0
ACTIVITY: Commit ba17363729d2 in stable/linux-5.13.y, Denis Efremov, https://git.kernel.org/pub/scm/linux/kernel/git/stable/linux.git/commit/?h=linux-5.13.y&id=ba17363729d21aefa58431d1dca717d96c7b5bab, 1630657386, PatchKind.0
ACTIVITY: Commit ebf67b94ca7a in stable/linux-5.14.y, Denis Efremov, https://git.kernel.org/pub/scm/linux/kernel/git/stable/linux.git/commit/?h=linux-5.14.y&id=ebf67b94ca7a6a17f73812433b8ccd6e76754d26, 1630657442, PatchKind.0
ACTIVITY: Re: [PATCH] Revert "floppy: reintroduce O_NDELAY fix", Thorsten Leemhuis, https://lore.kernel.org/regressions/8d83985a-68a6-13f9-42b6-a6980c9f853c@leemhuis.info/, 1632137352, PatchKind.0
ACTIVITY: Re: [PATCH] Revert "floppy: reintroduce O_NDELAY fix", Thorsten Leemhuis, https://lore.kernel.org/regressions/8d83985a-68a6-13f9-42b6-a6980c9f853c@leemhuis.info/, 1632137352, PatchKind.0
HISTORY: Re:Revert "floppy: reintroduce O_NDELAY fix", 1630315204, Thorsten Leemhuis, https://lore.kernel.org/lkml/a11ba91f-a520-e6ab-5566-dfc9fd934440@leemhuis.info/, introduced: 8a0c014cd20516ade9654fc13b51345ec58e7be8 ^
HISTORY: Re: [PATCH] Revert "floppy: reintroduce O_NDELAY fix", 1630315204, Thorsten Leemhuis, https://lore.kernel.org/lkml/a11ba91f-a520-e6ab-5566-dfc9fd934440@leemhuis.info/, monitor: https://lore.kernel.org/lkml/20210818154646.925351-1-efremov@linux.com/
HISTORY: Re: [PATCH] Revert "floppy: reintroduce O_NDELAY fix", 1630315204, Thorsten Leemhuis, https://lore.kernel.org/lkml/a11ba91f-a520-e6ab-5566-dfc9fd934440@leemhuis.info/, monitor: https://lore.kernel.org/lkml/388418f4-2b9a-6fed-836c-a004369dc7c0@linux.com/
HISTORY: Revert "floppy: reintroduce O_NDELAY fix", 1630375306, Denis Efremov, https://git.kernel.org/pub/scm/linux/kernel/git/next/linux-next.git/commit/?h=master&id=c7e9d0020361f4308a70cdfd6d5335e273eb8717, fix: c7e9d0020361 in next referred to this regression
HISTORY: Revert "floppy: reintroduce O_NDELAY fix", 1630375306, Denis Efremov, https://git.kernel.org/pub/scm/linux/kernel/git/torvalds/linux.git/commit/?h=master&id=c7e9d0020361f4308a70cdfd6d5335e273eb8717, fixed: c7e9d0020361 in mainline referred to this regression
HISTORY: Revert "floppy: reintroduce O_NDELAY fix", 1630375306, Denis Efremov, https://git.kernel.org/pub/scm/linux/kernel/git/stable/linux.git/commit/?h=linux-5.15.y&id=c7e9d0020361f4308a70cdfd6d5335e273eb8717, note: c7e9d0020361 in stable/linux-5.15.y referred to this regression
HISTORY: Revert "floppy: reintroduce O_NDELAY fix", 1630375306, Denis Efremov, https://git.kernel.org/pub/scm/linux/kernel/git/stable/linux.git/commit/?h=linux-5.16.y&id=c7e9d0020361f4308a70cdfd6d5335e273eb8717, note: c7e9d0020361 in stable/linux-5.16.y referred to this regression
HISTORY: Revert "floppy: reintroduce O_NDELAY fix", 1630375306, Denis Efremov, https://git.kernel.org/pub/scm/linux/kernel/git/stable/linux.git/commit/?h=linux-5.17.y&id=c7e9d0020361f4308a70cdfd6d5335e273eb8717, note: c7e9d0020361 in stable/linux-5.17.y referred to this regression
HISTORY: Revert "floppy: reintroduce O_NDELAY fix", 1630375306, Denis Efremov, https://git.kernel.org/pub/scm/linux/kernel/git/stable/linux.git/commit/?h=linux-5.18.y&id=c7e9d0020361f4308a70cdfd6d5335e273eb8717, note: c7e9d0020361 in stable/linux-5.18.y referred to this regression
HISTORY: Revert "floppy: reintroduce O_NDELAY fix", 1630654988, Denis Efremov, https://git.kernel.org/pub/scm/linux/kernel/git/stable/linux.git/commit/?h=linux-4.4.y&id=d25b48d4d3ef1ce75ce5628a8a3ba60a2427090f, note: d25b48d4d3ef in stable/linux-4.4.y referred to this regression
HISTORY: Revert "floppy: reintroduce O_NDELAY fix", 1630655081, Denis Efremov, https://git.kernel.org/pub/scm/linux/kernel/git/stable/linux.git/commit/?h=linux-4.9.y&id=05f67ba7e6773d561866daf5346b19b7bcb991b9, note: 05f67ba7e677 in stable/linux-4.9.y referred to this regression
HISTORY: Revert "floppy: reintroduce O_NDELAY fix", 1630655786, Denis Efremov, https://git.kernel.org/pub/scm/linux/kernel/git/stable/linux.git/commit/?h=linux-4.14.y&id=4ac05376dbb8539d882ffa2069be680859920ce7, note: 4ac05376dbb8 in stable/linux-4.14.y referred to this regression
HISTORY: Revert "floppy: reintroduce O_NDELAY fix", 1630655883, Denis Efremov, https://git.kernel.org/pub/scm/linux/kernel/git/stable/linux.git/commit/?h=linux-4.19.y&id=61b224e29ec37cbf39111270f2c7143bfe222b20, note: 61b224e29ec3 in stable/linux-4.19.y referred to this regression
HISTORY: Revert "floppy: reintroduce O_NDELAY fix", 1630656496, Denis Efremov, https://git.kernel.org/pub/scm/linux/kernel/git/stable/linux.git/commit/?h=linux-5.4.y&id=67871ada3a53895df959305b0bba84a91081a90e, note: 67871ada3a53 in stable/linux-5.4.y referred to this regression
HISTORY: Revert "floppy: reintroduce O_NDELAY fix", 1630656571, Denis Efremov, https://git.kernel.org/pub/scm/linux/kernel/git/stable/linux.git/commit/?h=linux-5.10.y&id=17982c664f8b2c9543241552331b008ad34d2648, note: 17982c664f8b in stable/linux-5.10.y referred to this regression
HISTORY: Revert "floppy: reintroduce O_NDELAY fix", 1630657386, Denis Efremov, https://git.kernel.org/pub/scm/linux/kernel/git/stable/linux.git/commit/?h=linux-5.13.y&id=ba17363729d21aefa58431d1dca717d96c7b5bab, note: ba17363729d2 in stable/linux-5.13.y referred to this regression
HISTORY: Revert "floppy: reintroduce O_NDELAY fix", 1630657442, Denis Efremov, https://git.kernel.org/pub/scm/linux/kernel/git/stable/linux.git/commit/?h=linux-5.14.y&id=ebf67b94ca7a6a17f73812433b8ccd6e76754d26, note: ebf67b94ca7a in stable/linux-5.14.y referred to this regression
HISTORY: Re: [PATCH] Revert "floppy: reintroduce O_NDELAY fix", 1632137352, Thorsten Leemhuis, https://lore.kernel.org/regressions/8d83985a-68a6-13f9-42b6-a6980c9f853c@leemhuis.info/, monitor: https://lore.kernel.org/linux-block/de10cb47-34d1-5a88-7751-225ca380f735@compro.net/
LATEST: Re: [PATCH] Revert "floppy: reintroduce O_NDELAY fix", Thorsten Leemhuis, https://lore.kernel.org/regressions/8d83985a-68a6-13f9-42b6-a6980c9f853c@leemhuis.info/, 1632137352, PatchKind.0
REGRESSION: mhi: ath11k resume fails on some devices, 020d3b26c07a (v5.13-rc1), https://git.kernel.org/pub/scm/linux/kernel/git/torvalds/linux.git/commit/?h=master&id=020d3b26c07abe274ac17f64999bbd3bf3342195, mainline, master, previous: culprit indentified
INITIAL_REPORT: 1631779209, mhi: ath11k resume fails on some devices, Kalle Valo, kvalo@codeaurora.org, https://lore.kernel.org/regressions/871r5p0x2u.fsf@codeaurora.org/
SOLVED: fixed, 1639332994, v5.16-rc5, https://git.kernel.org/pub/scm/linux/kernel/git/torvalds/linux.git/commit/?h=master&id=cab2d3fd6866e089b5c50db09dece131f85bfebd, bus: mhi: core: Add support for forced PM resume
ACTIVITY: mhi: ath11k resume fails on some devices, Kalle Valo, https://lore.kernel.org/regressions/871r5p0x2u.fsf@codeaurora.org/, 1631779209, PatchKind.0
ACTIVITY: Re: [regression] mhi: ath11k resume fails on some devices, Loic Poulain, https://lore.kernel.org/regressions/CAMZdPi8UJLvBFQd8-nf-iHAQh8cEuihq97PUFfZ7Q=rxRQoPsg@mail.gmail.com/, 1631787490, PatchKind.0
ACTIVITY: Re: [regression] mhi: ath11k resume fails on some devices, Manivannan Sadhasivam, https://lore.kernel.org/regressions/20210916111218.GA12918@thinkpad/, 1631790738, PatchKind.0
ACTIVITY: Re: [regression] mhi: ath11k resume fails on some devices, Manivannan Sadhasivam, https://lore.kernel.org/regressions/20210916163529.GA9027@thinkpad/, 1631810129, PatchKind.0
ACTIVITY: Re: [regression] mhi: ath11k resume fails on some devices, Kalle Valo, https://lore.kernel.org/regressions/87k0jgxyjp.fsf@codeaurora.org/, 1631810522, PatchKind.0
ACTIVITY: Re: [regression] mhi: ath11k resume fails on some devices, Manivannan Sadhasivam, https://lore.kernel.org/regressions/20210916171927.GB9027@thinkpad/, 1631812767, PatchKind.0
ACTIVITY: Re: [regression] mhi: ath11k resume fails on some devices, Carl Huang, https://lore.kernel.org/regressions/b7c0906041dcafb43be215bd4f55326a@codeaurora.org/, 1632386083, PatchKind.0
ACTIVITY: Re: [regression] mhi: ath11k resume fails on some devices, Manivannan Sadhasivam, https://lore.kernel.org/regressions/20210923085926.GD6083@thinkpad/, 1632387566, PatchKind.DIFF
ACTIVITY: Re: [regression] mhi: ath11k resume fails on some devices, Carl Huang, https://lore.kernel.org/regressions/6912b6840858c0554922c01a0f9c47b8@codeaurora.org/, 1632389216, PatchKind.0
ACTIVITY: Re: [regression] mhi: ath11k resume fails on some devices, Loic Poulain, https://lore.kernel.org/regressions/CAMZdPi-3WOj_TT7diUJJ00RaoHgKw-tu-heQJu6vDUK1yZ4CZg@mail.gmail.com/, 1632394208, PatchKind.0
ACTIVITY: Re: [regression] mhi: ath11k resume fails on some devices, Kalle Valo, https://lore.kernel.org/regressions/877df6tlnq.fsf@codeaurora.org/, 1632472601, PatchKind.0
ACTIVITY: Re: [regression] mhi: ath11k resume fails on some devices, Kalle Valo, https://lore.kernel.org/regressions/8735putk82.fsf@codeaurora.org/, 1632474461, PatchKind.0
ACTIVITY: Re: [regression] mhi: ath11k resume fails on some devices, Loic Poulain, https://lore.kernel.org/regressions/CAMZdPi8P7YZPhPir%2BWfS3cY_a7He1m2Pq2uqBhczPdEeoNRb0Q@mail.gmail.com/, 1632476635, PatchKind.0
ACTIVITY: Re: [regression] mhi: ath11k resume fails on some devices, Manivannan Sadhasivam, https://lore.kernel.org/regressions/20210924095755.GB19050@workstation/, 1632477475, PatchKind.0
ACTIVITY: Re: [regression] mhi: ath11k resume fails on some devices, Manivannan Sadhasivam, https://lore.kernel.org/regressions/20210924100034.GC19050@workstation/, 1632477634, PatchKind.0
ACTIVITY: Re: [regression] mhi: ath11k resume fails on some devices, Thorsten Leemhuis, https://lore.kernel.org/regressions/6d62738a-b213-dc9c-c13f-7d4eaa7e46b8@leemhuis.info/, 1632591631, PatchKind.0
ACTIVITY: Re: [regression] mhi: ath11k resume fails on some devices, Kalle Valo, https://lore.kernel.org/regressions/87a6jl9ndo.fsf@codeaurora.org/, 1633600099, PatchKind.0
ACTIVITY: Re: [regression] mhi: ath11k resume fails on some devices, Kalle Valo, https://lore.kernel.org/regressions/874k9t9n13.fsf@codeaurora.org/, 1633600552, PatchKind.0
ACTIVITY: Re: [regression] mhi: ath11k resume fails on some devices, Kalle Valo, https://lore.kernel.org/regressions/87ee8hgqni.fsf@codeaurora.org/, 1634645521, PatchKind.0
ACTIVITY: Re: [regression] mhi: ath11k resume fails on some devices, Manivannan Sadhasivam, https://lore.kernel.org/regressions/20211021100111.GC7580@workstation/, 1634810471, PatchKind.0
ACTIVITY: Re: [regression] mhi: ath11k resume fails on some devices, Manivannan Sadhasivam, https://lore.kernel.org/regressions/20211021100305.GD7580@workstation/, 1634810585, PatchKind.0
ACTIVITY: Re: [regression] mhi: ath11k resume fails on some devices, Manivannan Sadhasivam, https://lore.kernel.org/regressions/20211118174145.GA31300@thinkpad/, 1637257305, PatchKind.0
ACTIVITY: Commit cab2d3fd6866 in next, Loic Poulain, https://git.kernel.org/pub/scm/linux/kernel/git/next/linux-next.git/commit/?h=master&id=cab2d3fd6866e089b5c50db09dece131f85bfebd, 1639332994, PatchKind.0
ACTIVITY: Commit cab2d3fd6866 in mainline, Loic Poulain, https://git.kernel.org/pub/scm/linux/kernel/git/torvalds/linux.git/commit/?h=master&id=cab2d3fd6866e089b5c50db09dece131f85bfebd, 1639332994, PatchKind.0
ACTIVITY: Commit cab2d3fd6866 in stable/linux-5.16.y, Loic Poulain, https://git.kernel.org/pub/scm/linux/kernel/git/stable/linux.git/commit/?h=linux-5.16.y&id=cab2d3fd6866e089b5c50db09dece131f85bfebd, 1639332994, PatchKind.0
ACTIVITY: Commit cab2d3fd6866 in stable/linux-5.17.y, Loic Poulain, https://git.kernel.org/pub/scm/linux/kernel/git/stable/linux.git/commit/?h=linux-5.17.y&id=cab2d3fd6866e089b5c50db09dece131f85bfebd, 1639332994, PatchKind.0
ACTIVITY: Commit cab2d3fd6866 in stable/linux-5.18.y, Loic Poulain, https://git.kernel.org/pub/scm/linux/kernel/git/stable/linux.git/commit/?h=linux-5.18.y&id=cab2d3fd6866e089b5c50db09dece131f85bfebd, 1639332994, PatchKind.0
ACTIVITY: Commit 47b355f25b55 in stable/linux-5.15.y, Loic Poulain, https://git.kernel.org/pub/scm/linux/kernel/git/stable/linux.git/commit/?h=linux-5.15.y&id=47b355f25b55c98c63ed7346faa3e1613c895f7e, 1639475842, PatchKind.0
HISTORY: Re:mhi: ath11k resume fails on some devices, 1632591631, Thorsten Leemhuis, https://lore.kernel.org/regressions/6d62738a-b213-dc9c-c13f-7d4eaa7e46b8@leemhuis.info/, introduced: 020d3b26c07abe274ac17f64999bbd3bf3342195 ^
HISTORY: Re: [regression] mhi: ath11k resume fails on some devices, 1636716977, Thorsten Leemhuis, https://lore.kernel.org/regressions/be20e91d-9285-b044-e415-c3728c399c1b@leemhuis.info/, poke
HISTORY: Re: [regression] mhi: ath11k resume fails on some devices, 1638344049, Thorsten Leemhuis, https://lore.kernel.org/regressions/915c3760-181e-bbac-aec4-1e20d0dab2a9@leemhuis.info/, poke
HISTORY: bus: mhi: core: Add support for forced PM resume, 1639332994, Loic Poulain, https://git.kernel.org/pub/scm/linux/kernel/git/next/linux-next.git/commit/?h=master&id=cab2d3fd6866e089b5c50db09dece131f85bfebd, fix: cab2d3fd6866 in next referred to this regression
HISTORY: bus: mhi: core: Add support for forced PM resume, 1639332994, Loic Poulain, https://git.kernel.org/pub/scm/linux/kernel/git/torvalds/linux.git/commit/?h=master&id=cab2d3fd6866e089b5c50db09dece131f85bfebd, fixed: cab2d3fd6866 in mainline referred to this regression
HISTORY: bus: mhi: core: Add support for forced PM resume, 1639332994, Loic Poulain, https://git.kernel.org/pub/scm/linux/kernel/git/stable/linux.git/commit/?h=linux-5.16.y&id=cab2d3fd6866e089b5c50db09dece131f85bfebd, note: cab2d3fd6866 in stable/linux-5.16.y referred to this regression
HISTORY: bus: mhi: core: Add support for forced PM resume, 1639332994, Loic Poulain, https://git.kernel.org/pub/scm/linux/kernel/git/stable/linux.git/commit/?h=linux-5.17.y&id=cab2d3fd6866e089b5c50db09dece131f85bfebd, note: cab2d3fd6866 in stable/linux-5.17.y referred to this regression
HISTORY: bus: mhi: core: Add support for forced PM resume, 1639332994, Loic Poulain, https://git.kernel.org/pub/scm/linux/kernel/git/stable/linux.git/commit/?h=linux-5.18.y&id=cab2d3fd6866e089b5c50db09dece131f85bfebd, note: cab2d3fd6866 in stable/linux-5.18.y referred to this regression
HISTORY: bus: mhi: core: Add support for forced PM resume, 1639475842, Loic Poulain, https://git.kernel.org/pub/scm/linux/kernel/git/stable/linux.git/commit/?h=linux-5.15.y&id=47b355f25b55c98c63ed7346faa3e1613c895f7e, note: 47b355f25b55 in stable/linux-5.15.y referred to this regression
LATEST: Commit 47b355f25b55 in stable/linux-5.15.y, Loic Poulain, https://git.kernel.org/pub/scm/linux/kernel/git/stable/linux.git/commit/?h=linux-5.15.y&id=47b355f25b55c98c63ed7346faa3e1613c895f7e, 1639475842, PatchKind.0
REGRESSION: nvme: code command_id with a genctr for use-after-free validation crashes apple T2 SSD, e7006de6c238 (v5.15-rc1), https://git.kernel.org/pub/scm/linux/kernel/git/torvalds/linux.git/commit/?h=master&id=e7006de6c23803799be000a5dcce4d916a36541a, mainline, master, previous: culprit indentified
INITIAL_REPORT: 1632575442, nvme: code command_id with a genctr for use-after-free validation crashes apple T2 SSD, Orlando Chamberlain, redecorating@protonmail.com, https://lore.kernel.org/regressions/cjJiSFV77WM51ciS8EuBcdeBcv9T83PUB-Kw3yi8PuC_LwrrUUnQ3w5RC1PbKvSYE72KryXp3wOJhv4Ov_WWIe2gKWOOo5uwuUjbbFA8HDM=@protonmail.com/
LINK: Re: [PATCH] Urgent bug fix causing Apple SSDs to not work., https://lore.kernel.org/lkml/CAHk-=wgML11x9afCvmg9yhVm9wi5mvnjBvmX%2Bi7OfMA0Vd4FWA@mail.gmail.com/ [monitored]
LINK: [PATCHv2] nvme: add command id quirk for apple controllers, https://lore.kernel.org/lkml/20210927154306.387437-1-kbusch@kernel.org/ [monitored]
SOLVED: fixed, 1633197636, v5.15-rc4, https://git.kernel.org/pub/scm/linux/kernel/git/torvalds/linux.git/commit/?h=master&id=a2941f6aa71a72be2c82c0a168523a492d093530, nvme: add command id quirk for apple controllers
ACTIVITY: nvme: code command_id with a genctr for use-after-free validation crashes apple T2 SSD, Orlando Chamberlain, https://lore.kernel.org/regressions/cjJiSFV77WM51ciS8EuBcdeBcv9T83PUB-Kw3yi8PuC_LwrrUUnQ3w5RC1PbKvSYE72KryXp3wOJhv4Ov_WWIe2gKWOOo5uwuUjbbFA8HDM=@protonmail.com/, 1632575442, PatchKind.0
ACTIVITY: Re: [REGRESSION] nvme: code command_id with a genctr for use-after-free validation crashes apple T2 SSD, Keith Busch, https://lore.kernel.org/regressions/20210925171618.GA116968@dhcp-10-100-145-180.wdc.com/, 1632590178, PatchKind.0
ACTIVITY: Re: [PATCH] Urgent bug fix causing Apple SSDs to not work., Linus Torvalds, https://lore.kernel.org/lkml/CAHk-=wgML11x9afCvmg9yhVm9wi5mvnjBvmX%2Bi7OfMA0Vd4FWA@mail.gmail.com/, 1632595628, PatchKind.0
ACTIVITY: Re: [PATCH] Urgent bug fix causing Apple SSDs to not work., Keith Busch, https://lore.kernel.org/lkml/20210925195425.GB116968@dhcp-10-100-145-180.wdc.com/, 1632599665, PatchKind.DIFF
ACTIVITY: Re: [PATCH] Urgent bug fix causing Apple SSDs to not work., Sven Peter, https://lore.kernel.org/lkml/4849f3d3-4abd-49b7-b053-d7965daa7138@www.fastmail.com/, 1632600533, PatchKind.0
ACTIVITY: Re: [PATCH] Urgent bug fix causing Apple SSDs to not work., Sagi Grimberg, https://lore.kernel.org/lkml/7e75e292-3073-f1f9-287a-badf92c8e4e8@grimberg.me/, 1632602071, PatchKind.0
ACTIVITY: Re: [PATCH] Urgent bug fix causing Apple SSDs to not work., Keith Busch, https://lore.kernel.org/lkml/20210925203857.GC116968@dhcp-10-100-145-180.wdc.com/, 1632602337, PatchKind.0
ACTIVITY: Re: [PATCH] Urgent bug fix causing Apple SSDs to not work., Sven Peter, https://lore.kernel.org/lkml/08930bdf-6a3a-4d49-b366-8029b88b25b4@www.fastmail.com/, 1632602919, PatchKind.0
ACTIVITY: Re: [PATCH] Urgent bug fix causing Apple SSDs to not work., Keith Busch, https://lore.kernel.org/lkml/20210925204842.GD116968@dhcp-10-100-145-180.wdc.com/, 1632602922, PatchKind.0
ACTIVITY: Re: [REGRESSION] nvme: code command_id with a genctr for use-after-free validation crashes apple T2 SSD, Orlando Chamberlain, https://lore.kernel.org/regressions/fa9de055-c3b8-20d3-41e0-12e43d0c336a@protonmail.com/, 1632613219, PatchKind.DIFF
ACTIVITY: Re: [REGRESSION] nvme: code command_id with a genctr for use-after-free validation crashes apple T2 SSD, Keith Busch, https://lore.kernel.org/regressions/20210926020839.GA96176@C02WT3WMHTD6/, 1632622119, PatchKind.0
ACTIVITY: Re: [REGRESSION] nvme: code command_id with a genctr for use-after-free validation crashes apple T2 SSD, Orlando Chamberlain, https://lore.kernel.org/regressions/1a6f5030-27d9-d1ae-aff4-0ed2a10dce6b@protonmail.com/, 1632628408, PatchKind.0
ACTIVITY: Re: [REGRESSION] nvme: code command_id with a genctr for use-after-free validation crashes apple T2 SSD, Orlando Chamberlain, https://lore.kernel.org/regressions/1b5d6bef-db6f-073f-8d24-4963f0df82ab@protonmail.com/, 1632630930, PatchKind.0
ACTIVITY: Re: [REGRESSION] nvme: code command_id with a genctr for use-after-free validation crashes apple T2 SSD, Thorsten Leemhuis, https://lore.kernel.org/regressions/438d711b-094b-fcfd-79e3-69f03a14df21@leemhuis.info/, 1632635948, PatchKind.0
ACTIVITY: Re: [REGRESSION] nvme: code command_id with a genctr for use-after-free validation crashes apple T2 SSD, Sagi Grimberg, https://lore.kernel.org/regressions/d65ecc69-35c9-4400-8fb0-95aa04360b03@grimberg.me/, 1632645843, PatchKind.0
ACTIVITY: Re: [PATCH] Urgent bug fix causing Apple SSDs to not work., Orlando Chamberlain, https://lore.kernel.org/lkml/4dae80c3-034c-617b-c766-1858d6ee1220@protonmail.com/, 1632645896, PatchKind.0
ACTIVITY: Re: [REGRESSION] nvme: code command_id with a genctr for use-after-free validation crashes apple T2 SSD, Orlando Chamberlain, https://lore.kernel.org/regressions/31c4dc69-5d10-cc6a-4295-e42bbc0993d0@protonmail.com/, 1632716525, PatchKind.0
ACTIVITY: Re: [PATCH] Urgent bug fix causing Apple SSDs to not work., Aditya Garg, https://lore.kernel.org/lkml/PNZPR01MB4415FE077EAA0C094A8EE6DAB8A79@PNZPR01MB4415.INDPRD01.PROD.OUTLOOK.COM/, 1632717300, PatchKind.0
ACTIVITY: Re: [REGRESSION] nvme: code command_id with a genctr for use-after-free validation crashes apple T2 SSD, Aditya Garg, https://lore.kernel.org/lkml/PNZPR01MB4415F35759F136E812A8F91DB8A79@PNZPR01MB4415.INDPRD01.PROD.OUTLOOK.COM/, 1632718300, PatchKind.0
ACTIVITY:  Re: [REGRESSION] nvme: code command_id with a genctr for use-after-free validation crashes apple T2 SSD, Sven Peter, https://lore.kernel.org/lkml/d4fb602c-43ab-4b5d-93ad-fa9116462dec@www.fastmail.com/, 1632722700, PatchKind.0
ACTIVITY: Re: [REGRESSION] nvme: code command_id with a genctr for use-after-free validation crashes apple T2 SSD, Keith Busch, https://lore.kernel.org/lkml/20210927150249.GA148020@dhcp-10-100-145-180.wdc.com/, 1632754969, PatchKind.0
ACTIVITY: [PATCHv2] nvme: add command id quirk for apple controllers, Keith Busch, https://lore.kernel.org/lkml/20210927154306.387437-1-kbusch@kernel.org/, 1632757386, PatchKind.0
ACTIVITY: Re: [PATCHv2] nvme: add command id quirk for apple controllers, Christoph Hellwig, https://lore.kernel.org/lkml/20210927154812.GA9730@lst.de/, 1632757692, PatchKind.0
ACTIVITY: Re: [PATCHv2] nvme: add command id quirk for apple controllers, Sven Peter, https://lore.kernel.org/lkml/df160284-55cb-4642-abc5-65f6aa61b48d@www.fastmail.com/, 1632758380, PatchKind.0
ACTIVITY: Re: [PATCHv2] nvme: add command id quirk for apple controllers, Jens Axboe, https://lore.kernel.org/lkml/31eb3b40-d3e9-d35e-5a3d-1a2199ef2dc5@kernel.dk/, 1632758506, PatchKind.0
ACTIVITY: Re: [PATCHv2] nvme: add command id quirk for apple controllers, Orlando Chamberlain, https://lore.kernel.org/lkml/38101793-e0b9-ecf4-d235-465cb8e334b3@protonmail.com/, 1632801348, PatchKind.0
ACTIVITY: Re: [PATCHv2] nvme: add command id quirk for apple controllers, Aditya Garg, https://lore.kernel.org/lkml/PNZPR01MB441530003CAF17304C0B3329B8A89@PNZPR01MB4415.INDPRD01.PROD.OUTLOOK.COM/, 1632807490, PatchKind.SIGNEDOFF|SUBJECT|DIFF
ACTIVITY: Commit a2941f6aa71a in next, Keith Busch, https://git.kernel.org/pub/scm/linux/kernel/git/next/linux-next.git/commit/?h=master&id=a2941f6aa71a72be2c82c0a168523a492d093530, 1633197636, PatchKind.0
ACTIVITY: Commit a2941f6aa71a in mainline, Keith Busch, https://git.kernel.org/pub/scm/linux/kernel/git/torvalds/linux.git/commit/?h=master&id=a2941f6aa71a72be2c82c0a168523a492d093530, 1633197636, PatchKind.0
ACTIVITY: Commit a2941f6aa71a in stable/linux-5.15.y, Keith Busch, https://git.kernel.org/pub/scm/linux/kernel/git/stable/linux.git/commit/?h=linux-5.15.y&id=a2941f6aa71a72be2c82c0a168523a492d093530, 1633197636, PatchKind.0
ACTIVITY: Commit a2941f6aa71a in stable/linux-5.16.y, Keith Busch, https://git.kernel.org/pub/scm/linux/kernel/git/stable/linux.git/commit/?h=linux-5.16.y&id=a2941f6aa71a72be2c82c0a168523a492d093530, 1633197636, PatchKind.0
ACTIVITY: Commit a2941f6aa71a in stable/linux-5.17.y, Keith Busch, https://git.kernel.org/pub/scm/linux/kernel/git/stable/linux.git/commit/?h=linux-5.17.y&id=a2941f6aa71a72be2c82c0a168523a492d093530, 1633197636, PatchKind.0
ACTIVITY: Commit a2941f6aa71a in stable/linux-5.18.y, Keith Busch, https://git.kernel.org/pub/scm/linux/kernel/git/stable/linux.git/commit/?h=linux-5.18.y&id=a2941f6aa71a72be2c82c0a168523a492d093530, 1633197636, PatchKind.0
ACTIVITY: Re: [REGRESSION] nvme: code command_id with a genctr for use-after-free validation crashes apple T2 SSD, Thorsten Leemhuis, https://lore.kernel.org/regressions/637b0f3f-ac23-1e32-db7f-c696a04c1c73@leemhuis.info/, 1633339041, PatchKind.0
ACTIVITY: Re: [REGRESSION] nvme: code command_id with a genctr for use-after-free validation crashes apple T2 SSD, Greg KH, https://lore.kernel.org/regressions/YVrI9rb4mnIs6RnF@kroah.com/, 1633339638, PatchKind.0
ACTIVITY: Re: [REGRESSION] nvme: code command_id with a genctr for use-after-free validation crashes apple T2 SSD, Thorsten Leemhuis, https://lore.kernel.org/regressions/a5349810-aed0-3f35-654c-bfd89b2fc285@leemhuis.info/, 1633342303, PatchKind.0
ACTIVITY: Re: [REGRESSION] nvme: code command_id with a genctr for use-after-free validation crashes apple T2 SSD, Greg KH, https://lore.kernel.org/regressions/YVrnN3pnmr%2FMOx%2Fv@kroah.com/, 1633347383, PatchKind.0
ACTIVITY: Re: [REGRESSION] nvme: code command_id with a genctr for use-after-free validation crashes apple T2 SSD, Thorsten Leemhuis, https://lore.kernel.org/regressions/33e3bba4-309a-23d7-64be-03c863723457@leemhuis.info/, 1633413002, PatchKind.0
ACTIVITY: Commit 011b4de950d8 in stable/linux-5.10.y, Keith Busch, https://git.kernel.org/pub/scm/linux/kernel/git/stable/linux.git/commit/?h=linux-5.10.y&id=011b4de950d80d9438e67b44622e2a587e097d56, 1633528559, PatchKind.0
ACTIVITY: Commit 617f0ea5dfc4 in stable/linux-5.14.y, Keith Busch, https://git.kernel.org/pub/scm/linux/kernel/git/stable/linux.git/commit/?h=linux-5.14.y&id=617f0ea5dfc43b9e36a980208361ed5b33ec23ec, 1633585997, PatchKind.0
HISTORY: Re:nvme: code command_id with a genctr for use-after-free validation crashes apple T2 SSD, 1632635948, Thorsten Leemhuis, https://lore.kernel.org/regressions/438d711b-094b-fcfd-79e3-69f03a14df21@leemhuis.info/, introduced: e7006de6c23803799be000a5dcce4d916a36541a ^
HISTORY: Re: [REGRESSION] nvme: code command_id with a genctr for use-after-free validation crashes apple T2 SSD, 1632635948, Thorsten Leemhuis, https://lore.kernel.org/regressions/438d711b-094b-fcfd-79e3-69f03a14df21@leemhuis.info/, monitor: https://lore.kernel.org/lkml/CAHk-=wgML11x9afCvmg9yhVm9wi5mvnjBvmX+i7OfMA0Vd4FWA@mail.gmail.com/
HISTORY: nvme: add command id quirk for apple controllers, 1633197636, Keith Busch, https://git.kernel.org/pub/scm/linux/kernel/git/next/linux-next.git/commit/?h=master&id=a2941f6aa71a72be2c82c0a168523a492d093530, fix: a2941f6aa71a in next referred to this regression
HISTORY: nvme: add command id quirk for apple controllers, 1633197636, Keith Busch, https://git.kernel.org/pub/scm/linux/kernel/git/torvalds/linux.git/commit/?h=master&id=a2941f6aa71a72be2c82c0a168523a492d093530, fixed: a2941f6aa71a in mainline referred to this regression
HISTORY: nvme: add command id quirk for apple controllers, 1633197636, Keith Busch, https://git.kernel.org/pub/scm/linux/kernel/git/stable/linux.git/commit/?h=linux-5.15.y&id=a2941f6aa71a72be2c82c0a168523a492d093530, note: a2941f6aa71a in stable/linux-5.15.y referred to this regression
HISTORY: nvme: add command id quirk for apple controllers, 1633197636, Keith Busch, https://git.kernel.org/pub/scm/linux/kernel/git/stable/linux.git/commit/?h=linux-5.16.y&id=a2941f6aa71a72be2c82c0a168523a492d093530, note: a2941f6aa71a in stable/linux-5.16.y referred to this regression
HISTORY: nvme: add command id quirk for apple controllers, 1633197636, Keith Busch, https://git.kernel.org/pub/scm/linux/kernel/git/stable/linux.git/commit/?h=linux-5.17.y&id=a2941f6aa71a72be2c82c0a168523a492d093530, note: a2941f6aa71a in stable/linux-5.17.y referred to this regression
HISTORY: nvme: add command id quirk for apple controllers, 1633197636, Keith Busch, https://git.kernel.org/pub/scm/linux/kernel/git/stable/linux.git/commit/?h=linux-5.18.y&id=a2941f6aa71a72be2c82c0a168523a492d093530, note: a2941f6aa71a in stable/linux-5.18.y referred to this regression
HISTORY: Re: [REGRESSION] nvme: code command_id with a genctr for use-after-free validation crashes apple T2 SSD, 1633339041, Thorsten Leemhuis, https://lore.kernel.org/regressions/637b0f3f-ac23-1e32-db7f-c696a04c1c73@leemhuis.info/, monitor: https://lore.kernel.org/all/20210927154306.387437-1-kbusch@kernel.org/
HISTORY: nvme: add command id quirk for apple controllers, 1633528559, Keith Busch, https://git.kernel.org/pub/scm/linux/kernel/git/stable/linux.git/commit/?h=linux-5.10.y&id=011b4de950d80d9438e67b44622e2a587e097d56, note: 011b4de950d8 in stable/linux-5.10.y referred to this regression
HISTORY: nvme: add command id quirk for apple controllers, 1633585997, Keith Busch, https://git.kernel.org/pub/scm/linux/kernel/git/stable/linux.git/commit/?h=linux-5.14.y&id=617f0ea5dfc43b9e36a980208361ed5b33ec23ec, note: 617f0ea5dfc4 in stable/linux-5.14.y referred to this regression
HISTORY: nvme-pci: Fix abort command id, 1634534720, Keith Busch, https://git.kernel.org/pub/scm/linux/kernel/git/next/linux-next.git/commit/?h=master&id=85f74acf097a63a07f5a7c215db6883e5c35e3ff, note: '85f74acf097a' in 'next' contains a 'Fixes:' tag for the culprit of this regression
HISTORY: nvme-pci: Fix abort command id, 1634723103, Keith Busch, https://git.kernel.org/pub/scm/linux/kernel/git/stable/linux.git/commit/?h=linux-5.10.y&id=6fecdb5b54a5d37e5c018307ea9180502c85d158, note: '6fecdb5b54a5' in 'stable/linux-5.10.y' contains a 'Fixes:' tag for the culprit of this regression
HISTORY: nvme-pci: Fix abort command id, 1634723874, Keith Busch, https://git.kernel.org/pub/scm/linux/kernel/git/stable/linux.git/commit/?h=linux-5.14.y&id=5ccd69157a9a043f1fbcf7d6a09bcb7829b845aa, note: '5ccd69157a9a' in 'stable/linux-5.14.y' contains a 'Fixes:' tag for the culprit of this regression
LATEST: Commit 617f0ea5dfc4 in stable/linux-5.14.y, Keith Busch, https://git.kernel.org/pub/scm/linux/kernel/git/stable/linux.git/commit/?h=linux-5.14.y&id=617f0ea5dfc43b9e36a980208361ed5b33ec23ec, 1633585997, PatchKind.0

[onlntest_1_0]
REGRESSION: virtio-net: kernel panic in virtio_net.c, v5.13..v5.14-rc1 (None), None, mainline, master, previous: culprit indentified
INITIAL_REPORT: 1633608262, virtio-net: kernel panic in virtio_net.c, Corentin Noël, corentin.noel@collabora.com, https://lore.kernel.org/regressions/5edaa2b7c2fe4abd0347b8454b2ac032b6694e2c.camel@collabora.com/
LINK: Looks like a fix for this somehow fall through the cracks, https://lore.kernel.org/regressions/1633623446.6192446-1-xuanzhuo@linux.alibaba.com/, Xuan Zhuo; link later added and described by Thorsten Leemhuis, 1633623446
SOLVED: fixed, 1634250099, v5.15-rc6, https://git.kernel.org/pub/scm/linux/kernel/git/torvalds/linux.git/commit/?h=master&id=732b74d647048668f0f8dc0c848f0746c69e2e2f, virtio-net: fix for skb_over_panic inside big mode
ACTIVITY: virtio-net: kernel panic in virtio_net.c, Corentin Noël, https://lore.kernel.org/regressions/5edaa2b7c2fe4abd0347b8454b2ac032b6694e2c.camel@collabora.com/, 1633608262, PatchKind.0
ACTIVITY: Re: virtio-net: kernel panic in virtio_net.c, Michael S. Tsirkin, https://lore.kernel.org/regressions/20211007090601-mutt-send-email-mst@kernel.org/, 1633612259, PatchKind.0
ACTIVITY: Re: virtio-net: kernel panic in virtio_net.c, Eric Dumazet, https://lore.kernel.org/regressions/CANn89i%2B-P_mS-0jOM7SD4f291%2BJbc9PORYJx2%2BgfQbebiX3z_A@mail.gmail.com/, 1633614685, PatchKind.0
ACTIVITY: Re: virtio-net: kernel panic in virtio_net.c, Corentin Noël, https://lore.kernel.org/regressions/b517d143c6ec0960eedcbf8f6917776bc67c5fd4.camel@collabora.com/, 1633615330, PatchKind.0
ACTIVITY: Re: virtio-net: kernel panic in virtio_net.c, Greg KH, https://lore.kernel.org/regressions/YV8Ao5W4%2Fz5sB5b9@kroah.com/, 1633616035, PatchKind.0
ACTIVITY: Re: virtio-net: kernel panic in virtio_net.c, Xuan Zhuo, https://lore.kernel.org/regressions/1633619172.5342586-1-xuanzhuo@linux.alibaba.com/, 1633619172, PatchKind.0
ACTIVITY: Re: virtio-net: kernel panic in virtio_net.c, Greg KH, https://lore.kernel.org/regressions/YV8RTqGSTuVLMFOP@kroah.com/, 1633620302, PatchKind.0
ACTIVITY: Re: virtio-net: kernel panic in virtio_net.c, Xuan Zhuo, https://lore.kernel.org/regressions/1633623446.6192446-1-xuanzhuo@linux.alibaba.com/, 1633623446, PatchKind.0
ACTIVITY: Re: virtio-net: kernel panic in virtio_net.c, Thorsten Leemhuis, https://lore.kernel.org/regressions/ae2879df-64b8-0258-e4ee-59d7c279676f@leemhuis.info/, 1633679996, PatchKind.0
ACTIVITY: Re: virtio-net: kernel panic in virtio_net.c, Greg KH, https://lore.kernel.org/regressions/YV%2F8Ia1d9zXvMqqc@kroah.com/, 1633680417, PatchKind.0
ACTIVITY: Re: virtio-net: kernel panic in virtio_net.c, Michael S. Tsirkin, https://lore.kernel.org/regressions/20211008055902-mutt-send-email-mst@kernel.org/, 1633687340, PatchKind.DIFF
ACTIVITY: Re: virtio-net: kernel panic in virtio_net.c, Corentin Noël, https://lore.kernel.org/regressions/3add681784c849872bcff931388ae2fb4c9901a2.camel@collabora.com/, 1633695705, PatchKind.0
ACTIVITY: Re: virtio-net: kernel panic in virtio_net.c, Xuan Zhuo, https://lore.kernel.org/regressions/1633710428.4908655-1-xuanzhuo@linux.alibaba.com/, 1633710428, PatchKind.0
ACTIVITY: Re: virtio-net: kernel panic in virtio_net.c, Greg KH, https://lore.kernel.org/regressions/YWEma6YvB2HN9%2FE%2F@kroah.com/, 1633756779, PatchKind.0
ACTIVITY: Re: virtio-net: kernel panic in virtio_net.c, Xuan Zhuo, https://lore.kernel.org/regressions/1633771866.6350079-2-xuanzhuo@linux.alibaba.com/, 1633771866, PatchKind.0
ACTIVITY: Re: virtio-net: kernel panic in virtio_net.c, Thorsten Leemhuis, https://lore.kernel.org/regressions/e2d474a4-c307-9f8e-d896-48d8d3acc9cb@leemhuis.info/, 1634042690, PatchKind.0
ACTIVITY: 732b74d64704, the fix specified through '#regzbot fix:' earlier landed in mainline, Xuan Zhuo, https://git.kernel.org/pub/scm/linux/kernel/git/torvalds/linux.git/commit/?h=master&id=732b74d647048668f0f8dc0c848f0746c69e2e2f, 1634250099, PatchKind.0
HISTORY: Re: virtio-net: kernel panic in virtio_net.c, 1633679996, Thorsten Leemhuis, https://lore.kernel.org/regressions/ae2879df-64b8-0258-e4ee-59d7c279676f@leemhuis.info/, introduced: v5.13..v5.14-rc1 ^
HISTORY: Re: virtio-net: kernel panic in virtio_net.c, 1633679996, Thorsten Leemhuis, https://lore.kernel.org/regressions/ae2879df-64b8-0258-e4ee-59d7c279676f@leemhuis.info/, link:  https://lore.kernel.org/regressions/1633623446.6192446-1-xuanzhuo@linux.alibaba.com/  Looks like a fix for this somehow fall through the cracks
HISTORY: Re: virtio-net: kernel panic in virtio_net.c, 1633679996, Thorsten Leemhuis, https://lore.kernel.org/regressions/ae2879df-64b8-0258-e4ee-59d7c279676f@leemhuis.info/, ignore-activitiy
HISTORY: Re: virtio-net: kernel panic in virtio_net.c, 1634042690, Thorsten Leemhuis, https://lore.kernel.org/regressions/e2d474a4-c307-9f8e-d896-48d8d3acc9cb@leemhuis.info/, fixed-by: 732b74d647048668f0f8dc0c848f0746c69e2e2f
HISTORY: virtio-net: fix for skb_over_panic inside big mode, 1634250099, Xuan Zhuo, https://git.kernel.org/pub/scm/linux/kernel/git/torvalds/linux.git/commit/?h=master&id=732b74d647048668f0f8dc0c848f0746c69e2e2f, fixed: 'fix' commit '732b74d64704' now in 'mainline'
LATEST: 732b74d64704, the fix specified through '#regzbot fix:' earlier landed in mainline, Xuan Zhuo, https://git.kernel.org/pub/scm/linux/kernel/git/torvalds/linux.git/commit/?h=master&id=732b74d647048668f0f8dc0c848f0746c69e2e2f, 1634250099, PatchKind.0
UNHANDLED: 1, https://lore.kernel.org/regressions/ae2879df-64b8-0258-e4ee-59d7c279676f@leemhuis.info/, unkown regzbot command: ignore-activitiy, 1633679996, None, Re: virtio-net: kernel panic in virtio_net.c, None, None, None

[onlntest_1_1]
REGRESSION: virtio-net: kernel panic in virtio_net.c, v5.13..v5.14-rc1 (None), None, mainline, master, previous: culprit indentified
INITIAL_REPORT: 1633608262, virtio-net: kernel panic in virtio_net.c, Corentin Noël, corentin.noel@collabora.com, https://lore.kernel.org/regressions/5edaa2b7c2fe4abd0347b8454b2ac032b6694e2c.camel@collabora.com/
LINK: Looks like a fix for this somehow fall through the cracks, https://lore.kernel.org/regressions/1633623446.6192446-1-xuanzhuo@linux.alibaba.com/, Xuan Zhuo; link later added and described by Thorsten Leemhuis, 1633623446
SOLVED: fixed, 1634250099, v5.15-rc6, https://git.kernel.org/pub/scm/linux/kernel/git/torvalds/linux.git/commit/?h=master&id=732b74d647048668f0f8dc0c848f0746c69e2e2f, virtio-net: fix for skb_over_panic inside big mode
ACTIVITY: virtio-net: kernel panic in virtio_net.c, Corentin Noël, https://lore.kernel.org/regressions/5edaa2b7c2fe4abd0347b8454b2ac032b6694e2c.camel@collabora.com/, 1633608262, PatchKind.0
ACTIVITY: Re: virtio-net: kernel panic in virtio_net.c, Michael S. Tsirkin, https://lore.kernel.org/regressions/20211007090601-mutt-send-email-mst@kernel.org/, 1633612259, PatchKind.0
ACTIVITY: Re: virtio-net: kernel panic in virtio_net.c, Eric Dumazet, https://lore.kernel.org/regressions/CANn89i%2B-P_mS-0jOM7SD4f291%2BJbc9PORYJx2%2BgfQbebiX3z_A@mail.gmail.com/, 1633614685, PatchKind.0
ACTIVITY: Re: virtio-net: kernel panic in virtio_net.c, Corentin Noël, https://lore.kernel.org/regressions/b517d143c6ec0960eedcbf8f6917776bc67c5fd4.camel@collabora.com/, 1633615330, PatchKind.0
ACTIVITY: Re: virtio-net: kernel panic in virtio_net.c, Greg KH, https://lore.kernel.org/regressions/YV8Ao5W4%2Fz5sB5b9@kroah.com/, 1633616035, PatchKind.0
ACTIVITY: Re: virtio-net: kernel panic in virtio_net.c, Xuan Zhuo, https://lore.kernel.org/regressions/1633619172.5342586-1-xuanzhuo@linux.alibaba.com/, 1633619172, PatchKind.0
ACTIVITY: Re: virtio-net: kernel panic in virtio_net.c, Greg KH, https://lore.kernel.org/regressions/YV8RTqGSTuVLMFOP@kroah.com/, 1633620302, PatchKind.0
ACTIVITY: Re: virtio-net: kernel panic in virtio_net.c, Xuan Zhuo, https://lore.kernel.org/regressions/1633623446.6192446-1-xuanzhuo@linux.alibaba.com/, 1633623446, PatchKind.0
ACTIVITY: Re: virtio-net: kernel panic in virtio_net.c, Thorsten Leemhuis, https://lore.kernel.org/regressions/ae2879df-64b8-0258-e4ee-59d7c279676f@leemhuis.info/, 1633679996, PatchKind.0
ACTIVITY: Re: virtio-net: kernel panic in virtio_net.c, Greg KH, https://lore.kernel.org/regressions/YV%2F8Ia1d9zXvMqqc@kroah.com/, 1633680417, PatchKind.0
ACTIVITY: Re: virtio-net: kernel panic in virtio_net.c, Michael S. Tsirkin, https://lore.kernel.org/regressions/20211008055902-mutt-send-email-mst@kernel.org/, 1633687340, PatchKind.DIFF
ACTIVITY: Re: virtio-net: kernel panic in virtio_net.c, Corentin Noël, https://lore.kernel.org/regressions/3add681784c849872bcff931388ae2fb4c9901a2.camel@collabora.com/, 1633695705, PatchKind.0
ACTIVITY: Re: virtio-net: kernel panic in virtio_net.c, Xuan Zhuo, https://lore.kernel.org/regressions/1633710428.4908655-1-xuanzhuo@linux.alibaba.com/, 1633710428, PatchKind.0
ACTIVITY: Re: virtio-net: kernel panic in virtio_net.c, Greg KH, https://lore.kernel.org/regressions/YWEma6YvB2HN9%2FE%2F@kroah.com/, 1633756779, PatchKind.0
ACTIVITY: Re: virtio-net: kernel panic in virtio_net.c, Xuan Zhuo, https://lore.kernel.org/regressions/1633771866.6350079-2-xuanzhuo@linux.alibaba.com/, 1633771866, PatchKind.0
ACTIVITY: Re: virtio-net: kernel panic in virtio_net.c, Thorsten Leemhuis, https://lore.kernel.org/regressions/e2d474a4-c307-9f8e-d896-48d8d3acc9cb@leemhuis.info/, 1634042690, PatchKind.0
ACTIVITY: 732b74d64704, the fix specified through '#regzbot fix:' earlier landed in mainline, Xuan Zhuo, https://git.kernel.org/pub/scm/linux/kernel/git/torvalds/linux.git/commit/?h=master&id=732b74d647048668f0f8dc0c848f0746c69e2e2f, 1634250099, PatchKind.0
HISTORY: Re: virtio-net: kernel panic in virtio_net.c, 1633679996, Thorsten Leemhuis, https://lore.kernel.org/regressions/ae2879df-64b8-0258-e4ee-59d7c279676f@leemhuis.info/, introduced: v5.13..v5.14-rc1 ^
HISTORY: Re: virtio-net: kernel panic in virtio_net.c, 1633679996, Thorsten Leemhuis, https://lore.kernel.org/regressions/ae2879df-64b8-0258-e4ee-59d7c279676f@leemhuis.info/, link:  https://lore.kernel.org/regressions/1633623446.6192446-1-xuanzhuo@linux.alibaba.com/  Looks like a fix for this somehow fall through the cracks
HISTORY: Re: virtio-net: kernel panic in virtio_net.c, 1633679996, Thorsten Leemhuis, https://lore.kernel.org/regressions/ae2879df-64b8-0258-e4ee-59d7c279676f@leemhuis.info/, ignore-activitiy
HISTORY: Re: virtio-net: kernel panic in virtio_net.c, 1634042690, Thorsten Leemhuis, https://lore.kernel.org/regressions/e2d474a4-c307-9f8e-d896-48d8d3acc9cb@leemhuis.info/, fixed-by: 732b74d647048668f0f8dc0c848f0746c69e2e2f
HISTORY: virtio-net: fix for skb_over_panic inside big mode, 1634250099, Xuan Zhuo, https://git.kernel.org/pub/scm/linux/kernel/git/torvalds/linux.git/commit/?h=master&id=732b74d647048668f0f8dc0c848f0746c69e2e2f, fixed: 'fix' commit '732b74d64704' now in 'mainline'
LATEST: 732b74d64704, the fix specified through '#regzbot fix:' earlier landed in mainline, Xuan Zhuo, https://git.kernel.org/pub/scm/linux/kernel/git/torvalds/linux.git/commit/?h=master&id=732b74d647048668f0f8dc0c848f0746c69e2e2f, 1634250099, PatchKind.0
UNHANDLED: 1, https://lore.kernel.org/regressions/ae2879df-64b8-0258-e4ee-59d7c279676f@leemhuis.info/, unkown regzbot command: ignore-activitiy, 1633679996, None, Re: virtio-net: kernel panic in virtio_net.c, None, None, None
UNHANDLED: 2, https://lore.kernel.org/regressions/ae2879df-64b8-0258-e4ee-59d7c279676f@leemhuis.info/, unkown regzbot command: ignore-activitiy, 1633679996, None, Re: virtio-net: kernel panic in virtio_net.c, None, None, None

